arq1.in
Tempo Serial: 30.671112
Tempo Paralelo: 25.594460
Senha: 10000

arq2.in
Tempo Serial: 339.069922
Tempo Paralelo: 254.124602
Senha: 100000

arq3.in
Tempo Serial: 1576.459987
Tempo Paralelo: 216.559674
Senha: 450000

arq4.in
Tempo Serial: 599.991419
Tempo Paralelo: 176.772197
Senha: 310000

arq5.in
Tempo Serial: 94.277787
Tempo Paralelo: 10.613083
Senha: 65000

arq6.in
Tempo Serial: 362.614431
Tempo Paralelo: 280.023623
Senha: 245999

SpeedUp
arq1.in: 1.19
arq2.in: 1.33
arq3.in: 7.27
arq4.in: 3.39
arq5.in: 8.88
arq6.in: 1.29 
