The system is: Linux - 4.8.13-100.fc23.x86_64 - x86_64
Compiling the C compiler identification source file "CMakeCCompilerId.c" succeeded.
Compiler: /opt/aclang/install/bin/clang 
Build flags: 
Id flags: 

The output was:
0


Compilation of the C compiler identification source "CMakeCCompilerId.c" produced "a.out"

The C compiler identification is Clang, found in "/home/msc2018-ceb/ra212069/T12/apps/loop-A/build-check/CMakeFiles/3.4.3/CompilerIdC/a.out"

Compiling the CXX compiler identification source file "CMakeCXXCompilerId.cpp" succeeded.
Compiler: /opt/aclang/install/bin/clang++ 
Build flags: 
Id flags: 

The output was:
0


Compilation of the CXX compiler identification source "CMakeCXXCompilerId.cpp" produced "a.out"

The CXX compiler identification is Clang, found in "/home/msc2018-ceb/ra212069/T12/apps/loop-A/build-check/CMakeFiles/3.4.3/CompilerIdCXX/a.out"

Determining if the C compiler works passed with the following output:
Change Dir: /home/msc2018-ceb/ra212069/T12/apps/loop-A/build-check/CMakeFiles/CMakeTmp

Run Build Command:"/usr/bin/gmake" "cmTC_639c8/fast"
/usr/bin/gmake -f CMakeFiles/cmTC_639c8.dir/build.make CMakeFiles/cmTC_639c8.dir/build
gmake[1]: Entering directory '/home/msc2018-ceb/ra212069/T12/apps/loop-A/build-check/CMakeFiles/CMakeTmp'
Building C object CMakeFiles/cmTC_639c8.dir/testCCompiler.c.o
/opt/aclang/install/bin/clang     -o CMakeFiles/cmTC_639c8.dir/testCCompiler.c.o   -c /home/msc2018-ceb/ra212069/T12/apps/loop-A/build-check/CMakeFiles/CMakeTmp/testCCompiler.c
Linking C executable cmTC_639c8
/usr/bin/cmake -E cmake_link_script CMakeFiles/cmTC_639c8.dir/link.txt --verbose=1
/opt/aclang/install/bin/clang       CMakeFiles/cmTC_639c8.dir/testCCompiler.c.o  -o cmTC_639c8 
gmake[1]: Leaving directory '/home/msc2018-ceb/ra212069/T12/apps/loop-A/build-check/CMakeFiles/CMakeTmp'


Detecting C compiler ABI info compiled with the following output:
Change Dir: /home/msc2018-ceb/ra212069/T12/apps/loop-A/build-check/CMakeFiles/CMakeTmp

Run Build Command:"/usr/bin/gmake" "cmTC_bdd19/fast"
/usr/bin/gmake -f CMakeFiles/cmTC_bdd19.dir/build.make CMakeFiles/cmTC_bdd19.dir/build
gmake[1]: Entering directory '/home/msc2018-ceb/ra212069/T12/apps/loop-A/build-check/CMakeFiles/CMakeTmp'
Building C object CMakeFiles/cmTC_bdd19.dir/CMakeCCompilerABI.c.o
/opt/aclang/install/bin/clang     -o CMakeFiles/cmTC_bdd19.dir/CMakeCCompilerABI.c.o   -c /usr/share/cmake/Modules/CMakeCCompilerABI.c
Linking C executable cmTC_bdd19
/usr/bin/cmake -E cmake_link_script CMakeFiles/cmTC_bdd19.dir/link.txt --verbose=1
/opt/aclang/install/bin/clang      -v CMakeFiles/cmTC_bdd19.dir/CMakeCCompilerABI.c.o  -o cmTC_bdd19  
clang version 4.0.0 (http://gitlab.lsc.ic.unicamp.br/luis.mattos/DoAcrossClause-clang.git d8d29f19ed9d88e265a4b336de8b3efd558d9c08) (http://gitlab.lsc.ic.unicamp.br/luis.mattos/DoAcrossClause.git 6ee0695152160be155346b4d0d8daeaf01555185)
Target: x86_64-unknown-linux-gnu
Thread model: posix
InstalledDir: /opt/aclang/install/bin
Found candidate GCC installation: /usr/lib/gcc/x86_64-redhat-linux/5.3.1
Selected GCC installation: /usr/lib/gcc/x86_64-redhat-linux/5.3.1
Candidate multilib: .;@m64
Candidate multilib: 32;@m32
Selected multilib: .;@m64
Found CUDA installation: /usr/local/cuda, version unknown
 "/usr/bin/ld" --hash-style=gnu --no-add-needed --eh-frame-hdr -m elf_x86_64 -dynamic-linker /lib64/ld-linux-x86-64.so.2 -o cmTC_bdd19 /usr/lib/gcc/x86_64-redhat-linux/5.3.1/../../../../lib64/crt1.o /usr/lib/gcc/x86_64-redhat-linux/5.3.1/../../../../lib64/crti.o /usr/lib/gcc/x86_64-redhat-linux/5.3.1/crtbegin.o -L/usr/lib/gcc/x86_64-redhat-linux/5.3.1 -L/usr/lib/gcc/x86_64-redhat-linux/5.3.1/../../../../lib64 -L/lib/../lib64 -L/usr/lib/../lib64 -L/usr/lib/gcc/x86_64-redhat-linux/5.3.1/../../.. -L/opt/aclang/install/bin/../lib -L/lib -L/usr/lib CMakeFiles/cmTC_bdd19.dir/CMakeCCompilerABI.c.o -L/opt/aclang/install/lib -L/opt/aclang/install/lib -L. -L/opt/llvm-omp/lib -L/usr/local/cuda-8.0/lib64 -lgcc --as-needed -lgcc_s --no-as-needed -lc -lgcc --as-needed -lgcc_s --no-as-needed /usr/lib/gcc/x86_64-redhat-linux/5.3.1/crtend.o /usr/lib/gcc/x86_64-redhat-linux/5.3.1/../../../../lib64/crtn.o
gmake[1]: Leaving directory '/home/msc2018-ceb/ra212069/T12/apps/loop-A/build-check/CMakeFiles/CMakeTmp'


Parsed C implicit link information from above output:
  link line regex: [^( *|.*[/\])(ld|([^/\]+-)?ld|collect2)[^/\]*( |$)]
  ignore line: [Change Dir: /home/msc2018-ceb/ra212069/T12/apps/loop-A/build-check/CMakeFiles/CMakeTmp]
  ignore line: []
  ignore line: [Run Build Command:"/usr/bin/gmake" "cmTC_bdd19/fast"]
  ignore line: [/usr/bin/gmake -f CMakeFiles/cmTC_bdd19.dir/build.make CMakeFiles/cmTC_bdd19.dir/build]
  ignore line: [gmake[1]: Entering directory '/home/msc2018-ceb/ra212069/T12/apps/loop-A/build-check/CMakeFiles/CMakeTmp']
  ignore line: [Building C object CMakeFiles/cmTC_bdd19.dir/CMakeCCompilerABI.c.o]
  ignore line: [/opt/aclang/install/bin/clang     -o CMakeFiles/cmTC_bdd19.dir/CMakeCCompilerABI.c.o   -c /usr/share/cmake/Modules/CMakeCCompilerABI.c]
  ignore line: [Linking C executable cmTC_bdd19]
  ignore line: [/usr/bin/cmake -E cmake_link_script CMakeFiles/cmTC_bdd19.dir/link.txt --verbose=1]
  ignore line: [/opt/aclang/install/bin/clang      -v CMakeFiles/cmTC_bdd19.dir/CMakeCCompilerABI.c.o  -o cmTC_bdd19  ]
  ignore line: [clang version 4.0.0 (http://gitlab.lsc.ic.unicamp.br/luis.mattos/DoAcrossClause-clang.git d8d29f19ed9d88e265a4b336de8b3efd558d9c08) (http://gitlab.lsc.ic.unicamp.br/luis.mattos/DoAcrossClause.git 6ee0695152160be155346b4d0d8daeaf01555185)]
  ignore line: [Target: x86_64-unknown-linux-gnu]
  ignore line: [Thread model: posix]
  ignore line: [InstalledDir: /opt/aclang/install/bin]
  ignore line: [Found candidate GCC installation: /usr/lib/gcc/x86_64-redhat-linux/5.3.1]
  ignore line: [Selected GCC installation: /usr/lib/gcc/x86_64-redhat-linux/5.3.1]
  ignore line: [Candidate multilib: .]
  ignore line: [@m64]
  ignore line: [Candidate multilib: 32]
  ignore line: [@m32]
  ignore line: [Selected multilib: .]
  ignore line: [@m64]
  ignore line: [Found CUDA installation: /usr/local/cuda, version unknown]
  link line: [ "/usr/bin/ld" --hash-style=gnu --no-add-needed --eh-frame-hdr -m elf_x86_64 -dynamic-linker /lib64/ld-linux-x86-64.so.2 -o cmTC_bdd19 /usr/lib/gcc/x86_64-redhat-linux/5.3.1/../../../../lib64/crt1.o /usr/lib/gcc/x86_64-redhat-linux/5.3.1/../../../../lib64/crti.o /usr/lib/gcc/x86_64-redhat-linux/5.3.1/crtbegin.o -L/usr/lib/gcc/x86_64-redhat-linux/5.3.1 -L/usr/lib/gcc/x86_64-redhat-linux/5.3.1/../../../../lib64 -L/lib/../lib64 -L/usr/lib/../lib64 -L/usr/lib/gcc/x86_64-redhat-linux/5.3.1/../../.. -L/opt/aclang/install/bin/../lib -L/lib -L/usr/lib CMakeFiles/cmTC_bdd19.dir/CMakeCCompilerABI.c.o -L/opt/aclang/install/lib -L/opt/aclang/install/lib -L. -L/opt/llvm-omp/lib -L/usr/local/cuda-8.0/lib64 -lgcc --as-needed -lgcc_s --no-as-needed -lc -lgcc --as-needed -lgcc_s --no-as-needed /usr/lib/gcc/x86_64-redhat-linux/5.3.1/crtend.o /usr/lib/gcc/x86_64-redhat-linux/5.3.1/../../../../lib64/crtn.o]
    arg [/usr/bin/ld] ==> ignore
    arg [--hash-style=gnu] ==> ignore
    arg [--no-add-needed] ==> ignore
    arg [--eh-frame-hdr] ==> ignore
    arg [-m] ==> ignore
    arg [elf_x86_64] ==> ignore
    arg [-dynamic-linker] ==> ignore
    arg [/lib64/ld-linux-x86-64.so.2] ==> ignore
    arg [-o] ==> ignore
    arg [cmTC_bdd19] ==> ignore
    arg [/usr/lib/gcc/x86_64-redhat-linux/5.3.1/../../../../lib64/crt1.o] ==> ignore
    arg [/usr/lib/gcc/x86_64-redhat-linux/5.3.1/../../../../lib64/crti.o] ==> ignore
    arg [/usr/lib/gcc/x86_64-redhat-linux/5.3.1/crtbegin.o] ==> ignore
    arg [-L/usr/lib/gcc/x86_64-redhat-linux/5.3.1] ==> dir [/usr/lib/gcc/x86_64-redhat-linux/5.3.1]
    arg [-L/usr/lib/gcc/x86_64-redhat-linux/5.3.1/../../../../lib64] ==> dir [/usr/lib/gcc/x86_64-redhat-linux/5.3.1/../../../../lib64]
    arg [-L/lib/../lib64] ==> dir [/lib/../lib64]
    arg [-L/usr/lib/../lib64] ==> dir [/usr/lib/../lib64]
    arg [-L/usr/lib/gcc/x86_64-redhat-linux/5.3.1/../../..] ==> dir [/usr/lib/gcc/x86_64-redhat-linux/5.3.1/../../..]
    arg [-L/opt/aclang/install/bin/../lib] ==> dir [/opt/aclang/install/bin/../lib]
    arg [-L/lib] ==> dir [/lib]
    arg [-L/usr/lib] ==> dir [/usr/lib]
    arg [CMakeFiles/cmTC_bdd19.dir/CMakeCCompilerABI.c.o] ==> ignore
    arg [-L/opt/aclang/install/lib] ==> dir [/opt/aclang/install/lib]
    arg [-L/opt/aclang/install/lib] ==> dir [/opt/aclang/install/lib]
    arg [-L.] ==> ignore
    arg [-L/opt/llvm-omp/lib] ==> dir [/opt/llvm-omp/lib]
    arg [-L/usr/local/cuda-8.0/lib64] ==> dir [/usr/local/cuda-8.0/lib64]
    arg [-lgcc] ==> lib [gcc]
    arg [--as-needed] ==> ignore
    arg [-lgcc_s] ==> lib [gcc_s]
    arg [--no-as-needed] ==> ignore
    arg [-lc] ==> lib [c]
    arg [-lgcc] ==> lib [gcc]
    arg [--as-needed] ==> ignore
    arg [-lgcc_s] ==> lib [gcc_s]
    arg [--no-as-needed] ==> ignore
    arg [/usr/lib/gcc/x86_64-redhat-linux/5.3.1/crtend.o] ==> ignore
    arg [/usr/lib/gcc/x86_64-redhat-linux/5.3.1/../../../../lib64/crtn.o] ==> ignore
  remove lib [gcc]
  remove lib [gcc_s]
  remove lib [gcc]
  remove lib [gcc_s]
  collapse library dir [/usr/lib/gcc/x86_64-redhat-linux/5.3.1] ==> [/usr/lib/gcc/x86_64-redhat-linux/5.3.1]
  collapse library dir [/usr/lib/gcc/x86_64-redhat-linux/5.3.1/../../../../lib64] ==> [/usr/lib64]
  collapse library dir [/lib/../lib64] ==> [/lib64]
  collapse library dir [/usr/lib/../lib64] ==> [/usr/lib64]
  collapse library dir [/usr/lib/gcc/x86_64-redhat-linux/5.3.1/../../..] ==> [/usr/lib]
  collapse library dir [/opt/aclang/install/bin/../lib] ==> [/opt/aclang/install/lib]
  collapse library dir [/lib] ==> [/lib]
  collapse library dir [/usr/lib] ==> [/usr/lib]
  collapse library dir [/opt/aclang/install/lib] ==> [/opt/aclang/install/lib]
  collapse library dir [/opt/aclang/install/lib] ==> [/opt/aclang/install/lib]
  collapse library dir [/opt/llvm-omp/lib] ==> [/opt/llvm-omp/lib]
  collapse library dir [/usr/local/cuda-8.0/lib64] ==> [/usr/local/cuda-8.0/lib64]
  implicit libs: [c]
  implicit dirs: [/usr/lib/gcc/x86_64-redhat-linux/5.3.1;/usr/lib64;/lib64;/usr/lib;/opt/aclang/install/lib;/lib;/opt/llvm-omp/lib;/usr/local/cuda-8.0/lib64]
  implicit fwks: []




Detecting C [-std=c11] compiler features compiled with the following output:
Change Dir: /home/msc2018-ceb/ra212069/T12/apps/loop-A/build-check/CMakeFiles/CMakeTmp

Run Build Command:"/usr/bin/gmake" "cmTC_a23cb/fast"
/usr/bin/gmake -f CMakeFiles/cmTC_a23cb.dir/build.make CMakeFiles/cmTC_a23cb.dir/build
gmake[1]: Entering directory '/home/msc2018-ceb/ra212069/T12/apps/loop-A/build-check/CMakeFiles/CMakeTmp'
Building C object CMakeFiles/cmTC_a23cb.dir/feature_tests.c.o
/opt/aclang/install/bin/clang    -std=c11 -o CMakeFiles/cmTC_a23cb.dir/feature_tests.c.o   -c /home/msc2018-ceb/ra212069/T12/apps/loop-A/build-check/CMakeFiles/feature_tests.c
Linking C executable cmTC_a23cb
/usr/bin/cmake -E cmake_link_script CMakeFiles/cmTC_a23cb.dir/link.txt --verbose=1
/opt/aclang/install/bin/clang       CMakeFiles/cmTC_a23cb.dir/feature_tests.c.o  -o cmTC_a23cb 
gmake[1]: Leaving directory '/home/msc2018-ceb/ra212069/T12/apps/loop-A/build-check/CMakeFiles/CMakeTmp'


    Feature record: C_FEATURE:1c_function_prototypes
    Feature record: C_FEATURE:1c_restrict
    Feature record: C_FEATURE:1c_static_assert
    Feature record: C_FEATURE:1c_variadic_macros


Detecting C [-std=c99] compiler features compiled with the following output:
Change Dir: /home/msc2018-ceb/ra212069/T12/apps/loop-A/build-check/CMakeFiles/CMakeTmp

Run Build Command:"/usr/bin/gmake" "cmTC_4f9c8/fast"
/usr/bin/gmake -f CMakeFiles/cmTC_4f9c8.dir/build.make CMakeFiles/cmTC_4f9c8.dir/build
gmake[1]: Entering directory '/home/msc2018-ceb/ra212069/T12/apps/loop-A/build-check/CMakeFiles/CMakeTmp'
Building C object CMakeFiles/cmTC_4f9c8.dir/feature_tests.c.o
/opt/aclang/install/bin/clang    -std=c99 -o CMakeFiles/cmTC_4f9c8.dir/feature_tests.c.o   -c /home/msc2018-ceb/ra212069/T12/apps/loop-A/build-check/CMakeFiles/feature_tests.c
Linking C executable cmTC_4f9c8
/usr/bin/cmake -E cmake_link_script CMakeFiles/cmTC_4f9c8.dir/link.txt --verbose=1
/opt/aclang/install/bin/clang       CMakeFiles/cmTC_4f9c8.dir/feature_tests.c.o  -o cmTC_4f9c8 
gmake[1]: Leaving directory '/home/msc2018-ceb/ra212069/T12/apps/loop-A/build-check/CMakeFiles/CMakeTmp'


    Feature record: C_FEATURE:1c_function_prototypes
    Feature record: C_FEATURE:1c_restrict
    Feature record: C_FEATURE:0c_static_assert
    Feature record: C_FEATURE:1c_variadic_macros


Detecting C [-std=c90] compiler features compiled with the following output:
Change Dir: /home/msc2018-ceb/ra212069/T12/apps/loop-A/build-check/CMakeFiles/CMakeTmp

Run Build Command:"/usr/bin/gmake" "cmTC_4f431/fast"
/usr/bin/gmake -f CMakeFiles/cmTC_4f431.dir/build.make CMakeFiles/cmTC_4f431.dir/build
gmake[1]: Entering directory '/home/msc2018-ceb/ra212069/T12/apps/loop-A/build-check/CMakeFiles/CMakeTmp'
Building C object CMakeFiles/cmTC_4f431.dir/feature_tests.c.o
/opt/aclang/install/bin/clang    -std=c90 -o CMakeFiles/cmTC_4f431.dir/feature_tests.c.o   -c /home/msc2018-ceb/ra212069/T12/apps/loop-A/build-check/CMakeFiles/feature_tests.c
Linking C executable cmTC_4f431
/usr/bin/cmake -E cmake_link_script CMakeFiles/cmTC_4f431.dir/link.txt --verbose=1
/opt/aclang/install/bin/clang       CMakeFiles/cmTC_4f431.dir/feature_tests.c.o  -o cmTC_4f431 
gmake[1]: Leaving directory '/home/msc2018-ceb/ra212069/T12/apps/loop-A/build-check/CMakeFiles/CMakeTmp'


    Feature record: C_FEATURE:1c_function_prototypes
    Feature record: C_FEATURE:0c_restrict
    Feature record: C_FEATURE:0c_static_assert
    Feature record: C_FEATURE:0c_variadic_macros
Determining if the CXX compiler works passed with the following output:
Change Dir: /home/msc2018-ceb/ra212069/T12/apps/loop-A/build-check/CMakeFiles/CMakeTmp

Run Build Command:"/usr/bin/gmake" "cmTC_23075/fast"
/usr/bin/gmake -f CMakeFiles/cmTC_23075.dir/build.make CMakeFiles/cmTC_23075.dir/build
gmake[1]: Entering directory '/home/msc2018-ceb/ra212069/T12/apps/loop-A/build-check/CMakeFiles/CMakeTmp'
Building CXX object CMakeFiles/cmTC_23075.dir/testCXXCompiler.cxx.o
/opt/aclang/install/bin/clang++      -o CMakeFiles/cmTC_23075.dir/testCXXCompiler.cxx.o -c /home/msc2018-ceb/ra212069/T12/apps/loop-A/build-check/CMakeFiles/CMakeTmp/testCXXCompiler.cxx
Linking CXX executable cmTC_23075
/usr/bin/cmake -E cmake_link_script CMakeFiles/cmTC_23075.dir/link.txt --verbose=1
/opt/aclang/install/bin/clang++        CMakeFiles/cmTC_23075.dir/testCXXCompiler.cxx.o  -o cmTC_23075 
gmake[1]: Leaving directory '/home/msc2018-ceb/ra212069/T12/apps/loop-A/build-check/CMakeFiles/CMakeTmp'


Detecting CXX compiler ABI info compiled with the following output:
Change Dir: /home/msc2018-ceb/ra212069/T12/apps/loop-A/build-check/CMakeFiles/CMakeTmp

Run Build Command:"/usr/bin/gmake" "cmTC_b8e21/fast"
/usr/bin/gmake -f CMakeFiles/cmTC_b8e21.dir/build.make CMakeFiles/cmTC_b8e21.dir/build
gmake[1]: Entering directory '/home/msc2018-ceb/ra212069/T12/apps/loop-A/build-check/CMakeFiles/CMakeTmp'
Building CXX object CMakeFiles/cmTC_b8e21.dir/CMakeCXXCompilerABI.cpp.o
/opt/aclang/install/bin/clang++      -o CMakeFiles/cmTC_b8e21.dir/CMakeCXXCompilerABI.cpp.o -c /usr/share/cmake/Modules/CMakeCXXCompilerABI.cpp
Linking CXX executable cmTC_b8e21
/usr/bin/cmake -E cmake_link_script CMakeFiles/cmTC_b8e21.dir/link.txt --verbose=1
/opt/aclang/install/bin/clang++       -v CMakeFiles/cmTC_b8e21.dir/CMakeCXXCompilerABI.cpp.o  -o cmTC_b8e21  
clang version 4.0.0 (http://gitlab.lsc.ic.unicamp.br/luis.mattos/DoAcrossClause-clang.git d8d29f19ed9d88e265a4b336de8b3efd558d9c08) (http://gitlab.lsc.ic.unicamp.br/luis.mattos/DoAcrossClause.git 6ee0695152160be155346b4d0d8daeaf01555185)
Target: x86_64-unknown-linux-gnu
Thread model: posix
InstalledDir: /opt/aclang/install/bin
Found candidate GCC installation: /usr/lib/gcc/x86_64-redhat-linux/5.3.1
Selected GCC installation: /usr/lib/gcc/x86_64-redhat-linux/5.3.1
Candidate multilib: .;@m64
Candidate multilib: 32;@m32
Selected multilib: .;@m64
Found CUDA installation: /usr/local/cuda, version unknown
 "/usr/bin/ld" --hash-style=gnu --no-add-needed --eh-frame-hdr -m elf_x86_64 -dynamic-linker /lib64/ld-linux-x86-64.so.2 -o cmTC_b8e21 /usr/lib/gcc/x86_64-redhat-linux/5.3.1/../../../../lib64/crt1.o /usr/lib/gcc/x86_64-redhat-linux/5.3.1/../../../../lib64/crti.o /usr/lib/gcc/x86_64-redhat-linux/5.3.1/crtbegin.o -L/usr/lib/gcc/x86_64-redhat-linux/5.3.1 -L/usr/lib/gcc/x86_64-redhat-linux/5.3.1/../../../../lib64 -L/lib/../lib64 -L/usr/lib/../lib64 -L/usr/lib/gcc/x86_64-redhat-linux/5.3.1/../../.. -L/opt/aclang/install/bin/../lib -L/lib -L/usr/lib CMakeFiles/cmTC_b8e21.dir/CMakeCXXCompilerABI.cpp.o -L/opt/aclang/install/lib -L/opt/aclang/install/lib -L. -L/opt/llvm-omp/lib -L/usr/local/cuda-8.0/lib64 -lstdc++ -lm -lgcc_s -lgcc -lc -lgcc_s -lgcc /usr/lib/gcc/x86_64-redhat-linux/5.3.1/crtend.o /usr/lib/gcc/x86_64-redhat-linux/5.3.1/../../../../lib64/crtn.o
gmake[1]: Leaving directory '/home/msc2018-ceb/ra212069/T12/apps/loop-A/build-check/CMakeFiles/CMakeTmp'


Parsed CXX implicit link information from above output:
  link line regex: [^( *|.*[/\])(ld|([^/\]+-)?ld|collect2)[^/\]*( |$)]
  ignore line: [Change Dir: /home/msc2018-ceb/ra212069/T12/apps/loop-A/build-check/CMakeFiles/CMakeTmp]
  ignore line: []
  ignore line: [Run Build Command:"/usr/bin/gmake" "cmTC_b8e21/fast"]
  ignore line: [/usr/bin/gmake -f CMakeFiles/cmTC_b8e21.dir/build.make CMakeFiles/cmTC_b8e21.dir/build]
  ignore line: [gmake[1]: Entering directory '/home/msc2018-ceb/ra212069/T12/apps/loop-A/build-check/CMakeFiles/CMakeTmp']
  ignore line: [Building CXX object CMakeFiles/cmTC_b8e21.dir/CMakeCXXCompilerABI.cpp.o]
  ignore line: [/opt/aclang/install/bin/clang++      -o CMakeFiles/cmTC_b8e21.dir/CMakeCXXCompilerABI.cpp.o -c /usr/share/cmake/Modules/CMakeCXXCompilerABI.cpp]
  ignore line: [Linking CXX executable cmTC_b8e21]
  ignore line: [/usr/bin/cmake -E cmake_link_script CMakeFiles/cmTC_b8e21.dir/link.txt --verbose=1]
  ignore line: [/opt/aclang/install/bin/clang++       -v CMakeFiles/cmTC_b8e21.dir/CMakeCXXCompilerABI.cpp.o  -o cmTC_b8e21  ]
  ignore line: [clang version 4.0.0 (http://gitlab.lsc.ic.unicamp.br/luis.mattos/DoAcrossClause-clang.git d8d29f19ed9d88e265a4b336de8b3efd558d9c08) (http://gitlab.lsc.ic.unicamp.br/luis.mattos/DoAcrossClause.git 6ee0695152160be155346b4d0d8daeaf01555185)]
  ignore line: [Target: x86_64-unknown-linux-gnu]
  ignore line: [Thread model: posix]
  ignore line: [InstalledDir: /opt/aclang/install/bin]
  ignore line: [Found candidate GCC installation: /usr/lib/gcc/x86_64-redhat-linux/5.3.1]
  ignore line: [Selected GCC installation: /usr/lib/gcc/x86_64-redhat-linux/5.3.1]
  ignore line: [Candidate multilib: .]
  ignore line: [@m64]
  ignore line: [Candidate multilib: 32]
  ignore line: [@m32]
  ignore line: [Selected multilib: .]
  ignore line: [@m64]
  ignore line: [Found CUDA installation: /usr/local/cuda, version unknown]
  link line: [ "/usr/bin/ld" --hash-style=gnu --no-add-needed --eh-frame-hdr -m elf_x86_64 -dynamic-linker /lib64/ld-linux-x86-64.so.2 -o cmTC_b8e21 /usr/lib/gcc/x86_64-redhat-linux/5.3.1/../../../../lib64/crt1.o /usr/lib/gcc/x86_64-redhat-linux/5.3.1/../../../../lib64/crti.o /usr/lib/gcc/x86_64-redhat-linux/5.3.1/crtbegin.o -L/usr/lib/gcc/x86_64-redhat-linux/5.3.1 -L/usr/lib/gcc/x86_64-redhat-linux/5.3.1/../../../../lib64 -L/lib/../lib64 -L/usr/lib/../lib64 -L/usr/lib/gcc/x86_64-redhat-linux/5.3.1/../../.. -L/opt/aclang/install/bin/../lib -L/lib -L/usr/lib CMakeFiles/cmTC_b8e21.dir/CMakeCXXCompilerABI.cpp.o -L/opt/aclang/install/lib -L/opt/aclang/install/lib -L. -L/opt/llvm-omp/lib -L/usr/local/cuda-8.0/lib64 -lstdc++ -lm -lgcc_s -lgcc -lc -lgcc_s -lgcc /usr/lib/gcc/x86_64-redhat-linux/5.3.1/crtend.o /usr/lib/gcc/x86_64-redhat-linux/5.3.1/../../../../lib64/crtn.o]
    arg [/usr/bin/ld] ==> ignore
    arg [--hash-style=gnu] ==> ignore
    arg [--no-add-needed] ==> ignore
    arg [--eh-frame-hdr] ==> ignore
    arg [-m] ==> ignore
    arg [elf_x86_64] ==> ignore
    arg [-dynamic-linker] ==> ignore
    arg [/lib64/ld-linux-x86-64.so.2] ==> ignore
    arg [-o] ==> ignore
    arg [cmTC_b8e21] ==> ignore
    arg [/usr/lib/gcc/x86_64-redhat-linux/5.3.1/../../../../lib64/crt1.o] ==> ignore
    arg [/usr/lib/gcc/x86_64-redhat-linux/5.3.1/../../../../lib64/crti.o] ==> ignore
    arg [/usr/lib/gcc/x86_64-redhat-linux/5.3.1/crtbegin.o] ==> ignore
    arg [-L/usr/lib/gcc/x86_64-redhat-linux/5.3.1] ==> dir [/usr/lib/gcc/x86_64-redhat-linux/5.3.1]
    arg [-L/usr/lib/gcc/x86_64-redhat-linux/5.3.1/../../../../lib64] ==> dir [/usr/lib/gcc/x86_64-redhat-linux/5.3.1/../../../../lib64]
    arg [-L/lib/../lib64] ==> dir [/lib/../lib64]
    arg [-L/usr/lib/../lib64] ==> dir [/usr/lib/../lib64]
    arg [-L/usr/lib/gcc/x86_64-redhat-linux/5.3.1/../../..] ==> dir [/usr/lib/gcc/x86_64-redhat-linux/5.3.1/../../..]
    arg [-L/opt/aclang/install/bin/../lib] ==> dir [/opt/aclang/install/bin/../lib]
    arg [-L/lib] ==> dir [/lib]
    arg [-L/usr/lib] ==> dir [/usr/lib]
    arg [CMakeFiles/cmTC_b8e21.dir/CMakeCXXCompilerABI.cpp.o] ==> ignore
    arg [-L/opt/aclang/install/lib] ==> dir [/opt/aclang/install/lib]
    arg [-L/opt/aclang/install/lib] ==> dir [/opt/aclang/install/lib]
    arg [-L.] ==> ignore
    arg [-L/opt/llvm-omp/lib] ==> dir [/opt/llvm-omp/lib]
    arg [-L/usr/local/cuda-8.0/lib64] ==> dir [/usr/local/cuda-8.0/lib64]
    arg [-lstdc++] ==> lib [stdc++]
    arg [-lm] ==> lib [m]
    arg [-lgcc_s] ==> lib [gcc_s]
    arg [-lgcc] ==> lib [gcc]
    arg [-lc] ==> lib [c]
    arg [-lgcc_s] ==> lib [gcc_s]
    arg [-lgcc] ==> lib [gcc]
    arg [/usr/lib/gcc/x86_64-redhat-linux/5.3.1/crtend.o] ==> ignore
    arg [/usr/lib/gcc/x86_64-redhat-linux/5.3.1/../../../../lib64/crtn.o] ==> ignore
  remove lib [gcc_s]
  remove lib [gcc]
  remove lib [gcc_s]
  remove lib [gcc]
  collapse library dir [/usr/lib/gcc/x86_64-redhat-linux/5.3.1] ==> [/usr/lib/gcc/x86_64-redhat-linux/5.3.1]
  collapse library dir [/usr/lib/gcc/x86_64-redhat-linux/5.3.1/../../../../lib64] ==> [/usr/lib64]
  collapse library dir [/lib/../lib64] ==> [/lib64]
  collapse library dir [/usr/lib/../lib64] ==> [/usr/lib64]
  collapse library dir [/usr/lib/gcc/x86_64-redhat-linux/5.3.1/../../..] ==> [/usr/lib]
  collapse library dir [/opt/aclang/install/bin/../lib] ==> [/opt/aclang/install/lib]
  collapse library dir [/lib] ==> [/lib]
  collapse library dir [/usr/lib] ==> [/usr/lib]
  collapse library dir [/opt/aclang/install/lib] ==> [/opt/aclang/install/lib]
  collapse library dir [/opt/aclang/install/lib] ==> [/opt/aclang/install/lib]
  collapse library dir [/opt/llvm-omp/lib] ==> [/opt/llvm-omp/lib]
  collapse library dir [/usr/local/cuda-8.0/lib64] ==> [/usr/local/cuda-8.0/lib64]
  implicit libs: [stdc++;m;c]
  implicit dirs: [/usr/lib/gcc/x86_64-redhat-linux/5.3.1;/usr/lib64;/lib64;/usr/lib;/opt/aclang/install/lib;/lib;/opt/llvm-omp/lib;/usr/local/cuda-8.0/lib64]
  implicit fwks: []




Detecting CXX [-std=c++14] compiler features compiled with the following output:
Change Dir: /home/msc2018-ceb/ra212069/T12/apps/loop-A/build-check/CMakeFiles/CMakeTmp

Run Build Command:"/usr/bin/gmake" "cmTC_32e66/fast"
/usr/bin/gmake -f CMakeFiles/cmTC_32e66.dir/build.make CMakeFiles/cmTC_32e66.dir/build
gmake[1]: Entering directory '/home/msc2018-ceb/ra212069/T12/apps/loop-A/build-check/CMakeFiles/CMakeTmp'
Building CXX object CMakeFiles/cmTC_32e66.dir/feature_tests.cxx.o
/opt/aclang/install/bin/clang++     -std=c++14 -o CMakeFiles/cmTC_32e66.dir/feature_tests.cxx.o -c /home/msc2018-ceb/ra212069/T12/apps/loop-A/build-check/CMakeFiles/feature_tests.cxx
Linking CXX executable cmTC_32e66
/usr/bin/cmake -E cmake_link_script CMakeFiles/cmTC_32e66.dir/link.txt --verbose=1
/opt/aclang/install/bin/clang++        CMakeFiles/cmTC_32e66.dir/feature_tests.cxx.o  -o cmTC_32e66 
gmake[1]: Leaving directory '/home/msc2018-ceb/ra212069/T12/apps/loop-A/build-check/CMakeFiles/CMakeTmp'


    Feature record: CXX_FEATURE:1cxx_aggregate_default_initializers
    Feature record: CXX_FEATURE:1cxx_alias_templates
    Feature record: CXX_FEATURE:1cxx_alignas
    Feature record: CXX_FEATURE:1cxx_alignof
    Feature record: CXX_FEATURE:1cxx_attributes
    Feature record: CXX_FEATURE:1cxx_attribute_deprecated
    Feature record: CXX_FEATURE:1cxx_auto_type
    Feature record: CXX_FEATURE:1cxx_binary_literals
    Feature record: CXX_FEATURE:1cxx_constexpr
    Feature record: CXX_FEATURE:1cxx_contextual_conversions
    Feature record: CXX_FEATURE:1cxx_decltype
    Feature record: CXX_FEATURE:1cxx_decltype_auto
    Feature record: CXX_FEATURE:1cxx_decltype_incomplete_return_types
    Feature record: CXX_FEATURE:1cxx_default_function_template_args
    Feature record: CXX_FEATURE:1cxx_defaulted_functions
    Feature record: CXX_FEATURE:1cxx_defaulted_move_initializers
    Feature record: CXX_FEATURE:1cxx_delegating_constructors
    Feature record: CXX_FEATURE:1cxx_deleted_functions
    Feature record: CXX_FEATURE:1cxx_digit_separators
    Feature record: CXX_FEATURE:1cxx_enum_forward_declarations
    Feature record: CXX_FEATURE:1cxx_explicit_conversions
    Feature record: CXX_FEATURE:1cxx_extended_friend_declarations
    Feature record: CXX_FEATURE:1cxx_extern_templates
    Feature record: CXX_FEATURE:1cxx_final
    Feature record: CXX_FEATURE:1cxx_func_identifier
    Feature record: CXX_FEATURE:1cxx_generalized_initializers
    Feature record: CXX_FEATURE:1cxx_generic_lambdas
    Feature record: CXX_FEATURE:1cxx_inheriting_constructors
    Feature record: CXX_FEATURE:1cxx_inline_namespaces
    Feature record: CXX_FEATURE:1cxx_lambdas
    Feature record: CXX_FEATURE:1cxx_lambda_init_captures
    Feature record: CXX_FEATURE:1cxx_local_type_template_args
    Feature record: CXX_FEATURE:1cxx_long_long_type
    Feature record: CXX_FEATURE:1cxx_noexcept
    Feature record: CXX_FEATURE:1cxx_nonstatic_member_init
    Feature record: CXX_FEATURE:1cxx_nullptr
    Feature record: CXX_FEATURE:1cxx_override
    Feature record: CXX_FEATURE:1cxx_range_for
    Feature record: CXX_FEATURE:1cxx_raw_string_literals
    Feature record: CXX_FEATURE:1cxx_reference_qualified_functions
    Feature record: CXX_FEATURE:1cxx_relaxed_constexpr
    Feature record: CXX_FEATURE:1cxx_return_type_deduction
    Feature record: CXX_FEATURE:1cxx_right_angle_brackets
    Feature record: CXX_FEATURE:1cxx_rvalue_references
    Feature record: CXX_FEATURE:1cxx_sizeof_member
    Feature record: CXX_FEATURE:1cxx_static_assert
    Feature record: CXX_FEATURE:1cxx_strong_enums
    Feature record: CXX_FEATURE:1cxx_template_template_parameters
    Feature record: CXX_FEATURE:1cxx_thread_local
    Feature record: CXX_FEATURE:1cxx_trailing_return_types
    Feature record: CXX_FEATURE:1cxx_unicode_literals
    Feature record: CXX_FEATURE:1cxx_uniform_initialization
    Feature record: CXX_FEATURE:1cxx_unrestricted_unions
    Feature record: CXX_FEATURE:1cxx_user_literals
    Feature record: CXX_FEATURE:1cxx_variable_templates
    Feature record: CXX_FEATURE:1cxx_variadic_macros
    Feature record: CXX_FEATURE:1cxx_variadic_templates


Detecting CXX [-std=c++11] compiler features compiled with the following output:
Change Dir: /home/msc2018-ceb/ra212069/T12/apps/loop-A/build-check/CMakeFiles/CMakeTmp

Run Build Command:"/usr/bin/gmake" "cmTC_e90e5/fast"
/usr/bin/gmake -f CMakeFiles/cmTC_e90e5.dir/build.make CMakeFiles/cmTC_e90e5.dir/build
gmake[1]: Entering directory '/home/msc2018-ceb/ra212069/T12/apps/loop-A/build-check/CMakeFiles/CMakeTmp'
Building CXX object CMakeFiles/cmTC_e90e5.dir/feature_tests.cxx.o
/opt/aclang/install/bin/clang++     -std=c++11 -o CMakeFiles/cmTC_e90e5.dir/feature_tests.cxx.o -c /home/msc2018-ceb/ra212069/T12/apps/loop-A/build-check/CMakeFiles/feature_tests.cxx
Linking CXX executable cmTC_e90e5
/usr/bin/cmake -E cmake_link_script CMakeFiles/cmTC_e90e5.dir/link.txt --verbose=1
/opt/aclang/install/bin/clang++        CMakeFiles/cmTC_e90e5.dir/feature_tests.cxx.o  -o cmTC_e90e5 
gmake[1]: Leaving directory '/home/msc2018-ceb/ra212069/T12/apps/loop-A/build-check/CMakeFiles/CMakeTmp'


    Feature record: CXX_FEATURE:0cxx_aggregate_default_initializers
    Feature record: CXX_FEATURE:1cxx_alias_templates
    Feature record: CXX_FEATURE:1cxx_alignas
    Feature record: CXX_FEATURE:1cxx_alignof
    Feature record: CXX_FEATURE:1cxx_attributes
    Feature record: CXX_FEATURE:0cxx_attribute_deprecated
    Feature record: CXX_FEATURE:1cxx_auto_type
    Feature record: CXX_FEATURE:0cxx_binary_literals
    Feature record: CXX_FEATURE:1cxx_constexpr
    Feature record: CXX_FEATURE:0cxx_contextual_conversions
    Feature record: CXX_FEATURE:1cxx_decltype
    Feature record: CXX_FEATURE:0cxx_decltype_auto
    Feature record: CXX_FEATURE:1cxx_decltype_incomplete_return_types
    Feature record: CXX_FEATURE:1cxx_default_function_template_args
    Feature record: CXX_FEATURE:1cxx_defaulted_functions
    Feature record: CXX_FEATURE:1cxx_defaulted_move_initializers
    Feature record: CXX_FEATURE:1cxx_delegating_constructors
    Feature record: CXX_FEATURE:1cxx_deleted_functions
    Feature record: CXX_FEATURE:0cxx_digit_separators
    Feature record: CXX_FEATURE:1cxx_enum_forward_declarations
    Feature record: CXX_FEATURE:1cxx_explicit_conversions
    Feature record: CXX_FEATURE:1cxx_extended_friend_declarations
    Feature record: CXX_FEATURE:1cxx_extern_templates
    Feature record: CXX_FEATURE:1cxx_final
    Feature record: CXX_FEATURE:1cxx_func_identifier
    Feature record: CXX_FEATURE:1cxx_generalized_initializers
    Feature record: CXX_FEATURE:0cxx_generic_lambdas
    Feature record: CXX_FEATURE:1cxx_inheriting_constructors
    Feature record: CXX_FEATURE:1cxx_inline_namespaces
    Feature record: CXX_FEATURE:1cxx_lambdas
    Feature record: CXX_FEATURE:0cxx_lambda_init_captures
    Feature record: CXX_FEATURE:1cxx_local_type_template_args
    Feature record: CXX_FEATURE:1cxx_long_long_type
    Feature record: CXX_FEATURE:1cxx_noexcept
    Feature record: CXX_FEATURE:1cxx_nonstatic_member_init
    Feature record: CXX_FEATURE:1cxx_nullptr
    Feature record: CXX_FEATURE:1cxx_override
    Feature record: CXX_FEATURE:1cxx_range_for
    Feature record: CXX_FEATURE:1cxx_raw_string_literals
    Feature record: CXX_FEATURE:1cxx_reference_qualified_functions
    Feature record: CXX_FEATURE:0cxx_relaxed_constexpr
    Feature record: CXX_FEATURE:0cxx_return_type_deduction
    Feature record: CXX_FEATURE:1cxx_right_angle_brackets
    Feature record: CXX_FEATURE:1cxx_rvalue_references
    Feature record: CXX_FEATURE:1cxx_sizeof_member
    Feature record: CXX_FEATURE:1cxx_static_assert
    Feature record: CXX_FEATURE:1cxx_strong_enums
    Feature record: CXX_FEATURE:1cxx_template_template_parameters
    Feature record: CXX_FEATURE:1cxx_thread_local
    Feature record: CXX_FEATURE:1cxx_trailing_return_types
    Feature record: CXX_FEATURE:1cxx_unicode_literals
    Feature record: CXX_FEATURE:1cxx_uniform_initialization
    Feature record: CXX_FEATURE:1cxx_unrestricted_unions
    Feature record: CXX_FEATURE:1cxx_user_literals
    Feature record: CXX_FEATURE:0cxx_variable_templates
    Feature record: CXX_FEATURE:1cxx_variadic_macros
    Feature record: CXX_FEATURE:1cxx_variadic_templates


Detecting CXX [-std=c++98] compiler features compiled with the following output:
Change Dir: /home/msc2018-ceb/ra212069/T12/apps/loop-A/build-check/CMakeFiles/CMakeTmp

Run Build Command:"/usr/bin/gmake" "cmTC_6a0a5/fast"
/usr/bin/gmake -f CMakeFiles/cmTC_6a0a5.dir/build.make CMakeFiles/cmTC_6a0a5.dir/build
gmake[1]: Entering directory '/home/msc2018-ceb/ra212069/T12/apps/loop-A/build-check/CMakeFiles/CMakeTmp'
Building CXX object CMakeFiles/cmTC_6a0a5.dir/feature_tests.cxx.o
/opt/aclang/install/bin/clang++     -std=c++98 -o CMakeFiles/cmTC_6a0a5.dir/feature_tests.cxx.o -c /home/msc2018-ceb/ra212069/T12/apps/loop-A/build-check/CMakeFiles/feature_tests.cxx
Linking CXX executable cmTC_6a0a5
/usr/bin/cmake -E cmake_link_script CMakeFiles/cmTC_6a0a5.dir/link.txt --verbose=1
/opt/aclang/install/bin/clang++        CMakeFiles/cmTC_6a0a5.dir/feature_tests.cxx.o  -o cmTC_6a0a5 
gmake[1]: Leaving directory '/home/msc2018-ceb/ra212069/T12/apps/loop-A/build-check/CMakeFiles/CMakeTmp'


    Feature record: CXX_FEATURE:0cxx_aggregate_default_initializers
    Feature record: CXX_FEATURE:0cxx_alias_templates
    Feature record: CXX_FEATURE:0cxx_alignas
    Feature record: CXX_FEATURE:0cxx_alignof
    Feature record: CXX_FEATURE:0cxx_attributes
    Feature record: CXX_FEATURE:0cxx_attribute_deprecated
    Feature record: CXX_FEATURE:0cxx_auto_type
    Feature record: CXX_FEATURE:0cxx_binary_literals
    Feature record: CXX_FEATURE:0cxx_constexpr
    Feature record: CXX_FEATURE:0cxx_contextual_conversions
    Feature record: CXX_FEATURE:0cxx_decltype
    Feature record: CXX_FEATURE:0cxx_decltype_auto
    Feature record: CXX_FEATURE:0cxx_decltype_incomplete_return_types
    Feature record: CXX_FEATURE:0cxx_default_function_template_args
    Feature record: CXX_FEATURE:0cxx_defaulted_functions
    Feature record: CXX_FEATURE:0cxx_defaulted_move_initializers
    Feature record: CXX_FEATURE:0cxx_delegating_constructors
    Feature record: CXX_FEATURE:0cxx_deleted_functions
    Feature record: CXX_FEATURE:0cxx_digit_separators
    Feature record: CXX_FEATURE:0cxx_enum_forward_declarations
    Feature record: CXX_FEATURE:0cxx_explicit_conversions
    Feature record: CXX_FEATURE:0cxx_extended_friend_declarations
    Feature record: CXX_FEATURE:0cxx_extern_templates
    Feature record: CXX_FEATURE:0cxx_final
    Feature record: CXX_FEATURE:0cxx_func_identifier
    Feature record: CXX_FEATURE:0cxx_generalized_initializers
    Feature record: CXX_FEATURE:0cxx_generic_lambdas
    Feature record: CXX_FEATURE:0cxx_inheriting_constructors
    Feature record: CXX_FEATURE:0cxx_inline_namespaces
    Feature record: CXX_FEATURE:0cxx_lambdas
    Feature record: CXX_FEATURE:0cxx_lambda_init_captures
    Feature record: CXX_FEATURE:0cxx_local_type_template_args
    Feature record: CXX_FEATURE:0cxx_long_long_type
    Feature record: CXX_FEATURE:0cxx_noexcept
    Feature record: CXX_FEATURE:0cxx_nonstatic_member_init
    Feature record: CXX_FEATURE:0cxx_nullptr
    Feature record: CXX_FEATURE:0cxx_override
    Feature record: CXX_FEATURE:0cxx_range_for
    Feature record: CXX_FEATURE:0cxx_raw_string_literals
    Feature record: CXX_FEATURE:0cxx_reference_qualified_functions
    Feature record: CXX_FEATURE:0cxx_relaxed_constexpr
    Feature record: CXX_FEATURE:0cxx_return_type_deduction
    Feature record: CXX_FEATURE:0cxx_right_angle_brackets
    Feature record: CXX_FEATURE:0cxx_rvalue_references
    Feature record: CXX_FEATURE:0cxx_sizeof_member
    Feature record: CXX_FEATURE:0cxx_static_assert
    Feature record: CXX_FEATURE:0cxx_strong_enums
    Feature record: CXX_FEATURE:1cxx_template_template_parameters
    Feature record: CXX_FEATURE:0cxx_thread_local
    Feature record: CXX_FEATURE:0cxx_trailing_return_types
    Feature record: CXX_FEATURE:0cxx_unicode_literals
    Feature record: CXX_FEATURE:0cxx_uniform_initialization
    Feature record: CXX_FEATURE:0cxx_unrestricted_unions
    Feature record: CXX_FEATURE:0cxx_user_literals
    Feature record: CXX_FEATURE:0cxx_variable_templates
    Feature record: CXX_FEATURE:0cxx_variadic_macros
    Feature record: CXX_FEATURE:0cxx_variadic_templates
