; ModuleID = 'CMakeFiles/cutcp.dir/excl-inst.c'
source_filename = "CMakeFiles/cutcp.dir/excl-inst.c"
target datalayout = "e-m:e-i64:64-f80:128-n8:16:32:64-S128"
target triple = "x86_64-unknown-linux-gnu"

%struct.Lattice_t = type { %struct.LatticeDim_t, float* }
%struct.LatticeDim_t = type { i32, i32, i32, %struct.Vec3_t, float }
%struct.Vec3_t = type { float, float, float }
%struct.Atoms_t = type { %struct.Atom_t*, i32 }
%struct.Atom_t = type { float, float, float, float }

@0 = internal constant [33 x i8] c"CMakeFiles/cutcp.dir/excl-inst.c\00"

; Function Attrs: nounwind uwtable
define i32 @remove_exclusions(%struct.Lattice_t*, float, %struct.Atoms_t*) #0 !dbg !9 {
  %4 = alloca %struct.Lattice_t*, align 8
  %5 = alloca float, align 4
  %6 = alloca %struct.Atoms_t*, align 8
  %7 = alloca i32, align 4
  %8 = alloca i32, align 4
  %9 = alloca i32, align 4
  %10 = alloca float, align 4
  %11 = alloca float, align 4
  %12 = alloca float, align 4
  %13 = alloca float, align 4
  %14 = alloca %struct.Atom_t*, align 8
  %15 = alloca float, align 4
  %16 = alloca float, align 4
  %17 = alloca i32, align 4
  %18 = alloca i32, align 4
  %19 = alloca i32, align 4
  %20 = alloca i32, align 4
  %21 = alloca i32, align 4
  %22 = alloca i32, align 4
  %23 = alloca i32, align 4
  %24 = alloca i32, align 4
  %25 = alloca i32, align 4
  %26 = alloca i32, align 4
  %27 = alloca i32, align 4
  %28 = alloca i32, align 4
  %29 = alloca i32, align 4
  %30 = alloca i32, align 4
  %31 = alloca i32, align 4
  %32 = alloca i32, align 4
  %33 = alloca i32, align 4
  %34 = alloca float, align 4
  %35 = alloca float, align 4
  %36 = alloca float, align 4
  %37 = alloca float, align 4
  %38 = alloca float, align 4
  %39 = alloca float, align 4
  %40 = alloca float, align 4
  %41 = alloca float, align 4
  %42 = alloca float, align 4
  %43 = alloca float, align 4
  %44 = alloca float, align 4
  %45 = alloca float, align 4
  %46 = alloca float, align 4
  %47 = alloca float*, align 8
  %48 = alloca i32, align 4
  %49 = alloca i32, align 4
  %50 = alloca i32, align 4
  %51 = alloca i32, align 4
  %52 = alloca i32, align 4
  %53 = alloca i32*, align 8
  %54 = alloca i32*, align 8
  %55 = alloca float, align 4
  %56 = alloca %struct.Vec3_t, align 4
  %57 = alloca %struct.Vec3_t, align 4
  store %struct.Lattice_t* %0, %struct.Lattice_t** %4, align 8
  call void @llvm.dbg.declare(metadata %struct.Lattice_t** %4, metadata !50, metadata !51), !dbg !52
  store float %1, float* %5, align 4
  call void @llvm.dbg.declare(metadata float* %5, metadata !53, metadata !51), !dbg !54
  store %struct.Atoms_t* %2, %struct.Atoms_t** %6, align 8
  call void @llvm.dbg.declare(metadata %struct.Atoms_t** %6, metadata !55, metadata !51), !dbg !56
  call void @llvm.dbg.declare(metadata i32* %7, metadata !57, metadata !51), !dbg !58
  %58 = load %struct.Lattice_t*, %struct.Lattice_t** %4, align 8, !dbg !59
  %59 = getelementptr inbounds %struct.Lattice_t, %struct.Lattice_t* %58, i32 0, i32 0, !dbg !60
  %60 = getelementptr inbounds %struct.LatticeDim_t, %struct.LatticeDim_t* %59, i32 0, i32 0, !dbg !61
  %61 = load i32, i32* %60, align 8, !dbg !61
  store i32 %61, i32* %7, align 4, !dbg !58
  call void @llvm.dbg.declare(metadata i32* %8, metadata !62, metadata !51), !dbg !63
  %62 = load %struct.Lattice_t*, %struct.Lattice_t** %4, align 8, !dbg !64
  %63 = getelementptr inbounds %struct.Lattice_t, %struct.Lattice_t* %62, i32 0, i32 0, !dbg !65
  %64 = getelementptr inbounds %struct.LatticeDim_t, %struct.LatticeDim_t* %63, i32 0, i32 1, !dbg !66
  %65 = load i32, i32* %64, align 4, !dbg !66
  store i32 %65, i32* %8, align 4, !dbg !63
  call void @llvm.dbg.declare(metadata i32* %9, metadata !67, metadata !51), !dbg !68
  %66 = load %struct.Lattice_t*, %struct.Lattice_t** %4, align 8, !dbg !69
  %67 = getelementptr inbounds %struct.Lattice_t, %struct.Lattice_t* %66, i32 0, i32 0, !dbg !70
  %68 = getelementptr inbounds %struct.LatticeDim_t, %struct.LatticeDim_t* %67, i32 0, i32 2, !dbg !71
  %69 = load i32, i32* %68, align 8, !dbg !71
  store i32 %69, i32* %9, align 4, !dbg !68
  call void @llvm.dbg.declare(metadata float* %10, metadata !72, metadata !51), !dbg !73
  %70 = load %struct.Lattice_t*, %struct.Lattice_t** %4, align 8, !dbg !74
  %71 = getelementptr inbounds %struct.Lattice_t, %struct.Lattice_t* %70, i32 0, i32 0, !dbg !75
  %72 = getelementptr inbounds %struct.LatticeDim_t, %struct.LatticeDim_t* %71, i32 0, i32 3, !dbg !76
  %73 = getelementptr inbounds %struct.Vec3_t, %struct.Vec3_t* %72, i32 0, i32 0, !dbg !77
  %74 = load float, float* %73, align 4, !dbg !77
  store float %74, float* %10, align 4, !dbg !73
  call void @llvm.dbg.declare(metadata float* %11, metadata !78, metadata !51), !dbg !79
  %75 = load %struct.Lattice_t*, %struct.Lattice_t** %4, align 8, !dbg !80
  %76 = getelementptr inbounds %struct.Lattice_t, %struct.Lattice_t* %75, i32 0, i32 0, !dbg !81
  %77 = getelementptr inbounds %struct.LatticeDim_t, %struct.LatticeDim_t* %76, i32 0, i32 3, !dbg !82
  %78 = getelementptr inbounds %struct.Vec3_t, %struct.Vec3_t* %77, i32 0, i32 1, !dbg !83
  %79 = load float, float* %78, align 4, !dbg !83
  store float %79, float* %11, align 4, !dbg !79
  call void @llvm.dbg.declare(metadata float* %12, metadata !84, metadata !51), !dbg !85
  %80 = load %struct.Lattice_t*, %struct.Lattice_t** %4, align 8, !dbg !86
  %81 = getelementptr inbounds %struct.Lattice_t, %struct.Lattice_t* %80, i32 0, i32 0, !dbg !87
  %82 = getelementptr inbounds %struct.LatticeDim_t, %struct.LatticeDim_t* %81, i32 0, i32 3, !dbg !88
  %83 = getelementptr inbounds %struct.Vec3_t, %struct.Vec3_t* %82, i32 0, i32 2, !dbg !89
  %84 = load float, float* %83, align 4, !dbg !89
  store float %84, float* %12, align 4, !dbg !85
  call void @llvm.dbg.declare(metadata float* %13, metadata !90, metadata !51), !dbg !91
  %85 = load %struct.Lattice_t*, %struct.Lattice_t** %4, align 8, !dbg !92
  %86 = getelementptr inbounds %struct.Lattice_t, %struct.Lattice_t* %85, i32 0, i32 0, !dbg !93
  %87 = getelementptr inbounds %struct.LatticeDim_t, %struct.LatticeDim_t* %86, i32 0, i32 4, !dbg !94
  %88 = load float, float* %87, align 8, !dbg !94
  store float %88, float* %13, align 4, !dbg !91
  call void @llvm.dbg.declare(metadata %struct.Atom_t** %14, metadata !95, metadata !51), !dbg !96
  %89 = load %struct.Atoms_t*, %struct.Atoms_t** %6, align 8, !dbg !97
  %90 = getelementptr inbounds %struct.Atoms_t, %struct.Atoms_t* %89, i32 0, i32 0, !dbg !98
  %91 = load %struct.Atom_t*, %struct.Atom_t** %90, align 8, !dbg !98
  store %struct.Atom_t* %91, %struct.Atom_t** %14, align 8, !dbg !96
  call void @llvm.dbg.declare(metadata float* %15, metadata !99, metadata !51), !dbg !101
  %92 = load float, float* %5, align 4, !dbg !102
  %93 = load float, float* %5, align 4, !dbg !103
  %94 = fmul float %92, %93, !dbg !104
  store float %94, float* %15, align 4, !dbg !101
  call void @llvm.dbg.declare(metadata float* %16, metadata !105, metadata !51), !dbg !106
  %95 = load float, float* %13, align 4, !dbg !107
  %96 = fdiv float 1.000000e+00, %95, !dbg !108
  store float %96, float* %16, align 4, !dbg !106
  call void @llvm.dbg.declare(metadata i32* %17, metadata !109, metadata !51), !dbg !111
  %97 = load float, float* %5, align 4, !dbg !112
  %98 = load float, float* %16, align 4, !dbg !113
  %99 = fmul float %97, %98, !dbg !114
  %100 = call float @ceilf(float %99) #1, !dbg !115
  %101 = fptosi float %100 to i32, !dbg !116
  %102 = sub nsw i32 %101, 1, !dbg !117
  store i32 %102, i32* %17, align 4, !dbg !111
  call void @llvm.dbg.declare(metadata i32* %18, metadata !118, metadata !51), !dbg !119
  call void @llvm.dbg.declare(metadata i32* %19, metadata !120, metadata !51), !dbg !121
  call void @llvm.dbg.declare(metadata i32* %20, metadata !122, metadata !51), !dbg !123
  call void @llvm.dbg.declare(metadata i32* %21, metadata !124, metadata !51), !dbg !125
  call void @llvm.dbg.declare(metadata i32* %22, metadata !126, metadata !51), !dbg !127
  call void @llvm.dbg.declare(metadata i32* %23, metadata !128, metadata !51), !dbg !129
  call void @llvm.dbg.declare(metadata i32* %24, metadata !130, metadata !51), !dbg !131
  call void @llvm.dbg.declare(metadata i32* %25, metadata !132, metadata !51), !dbg !133
  call void @llvm.dbg.declare(metadata i32* %26, metadata !134, metadata !51), !dbg !135
  call void @llvm.dbg.declare(metadata i32* %27, metadata !136, metadata !51), !dbg !137
  call void @llvm.dbg.declare(metadata i32* %28, metadata !138, metadata !51), !dbg !139
  call void @llvm.dbg.declare(metadata i32* %29, metadata !140, metadata !51), !dbg !141
  call void @llvm.dbg.declare(metadata i32* %30, metadata !142, metadata !51), !dbg !143
  call void @llvm.dbg.declare(metadata i32* %31, metadata !144, metadata !51), !dbg !145
  call void @llvm.dbg.declare(metadata i32* %32, metadata !146, metadata !51), !dbg !147
  call void @llvm.dbg.declare(metadata i32* %33, metadata !148, metadata !51), !dbg !149
  call void @llvm.dbg.declare(metadata float* %34, metadata !150, metadata !51), !dbg !151
  call void @llvm.dbg.declare(metadata float* %35, metadata !152, metadata !51), !dbg !153
  call void @llvm.dbg.declare(metadata float* %36, metadata !154, metadata !51), !dbg !155
  call void @llvm.dbg.declare(metadata float* %37, metadata !156, metadata !51), !dbg !157
  call void @llvm.dbg.declare(metadata float* %38, metadata !158, metadata !51), !dbg !159
  call void @llvm.dbg.declare(metadata float* %39, metadata !160, metadata !51), !dbg !161
  call void @llvm.dbg.declare(metadata float* %40, metadata !162, metadata !51), !dbg !163
  call void @llvm.dbg.declare(metadata float* %41, metadata !164, metadata !51), !dbg !165
  call void @llvm.dbg.declare(metadata float* %42, metadata !166, metadata !51), !dbg !167
  call void @llvm.dbg.declare(metadata float* %43, metadata !168, metadata !51), !dbg !169
  call void @llvm.dbg.declare(metadata float* %44, metadata !170, metadata !51), !dbg !171
  call void @llvm.dbg.declare(metadata float* %45, metadata !172, metadata !51), !dbg !173
  call void @llvm.dbg.declare(metadata float* %46, metadata !174, metadata !51), !dbg !175
  call void @llvm.dbg.declare(metadata float** %47, metadata !176, metadata !51), !dbg !177
  call void @llvm.dbg.declare(metadata i32* %48, metadata !178, metadata !51), !dbg !179
  call void @llvm.dbg.declare(metadata i32* %49, metadata !180, metadata !51), !dbg !181
  call void @llvm.dbg.declare(metadata i32* %50, metadata !182, metadata !51), !dbg !183
  call void @llvm.dbg.declare(metadata i32* %51, metadata !184, metadata !51), !dbg !185
  call void @llvm.dbg.declare(metadata i32* %52, metadata !186, metadata !51), !dbg !187
  call void @llvm.dbg.declare(metadata i32** %53, metadata !188, metadata !51), !dbg !189
  call void @llvm.dbg.declare(metadata i32** %54, metadata !190, metadata !51), !dbg !191
  call void @llvm.dbg.declare(metadata float* %55, metadata !192, metadata !51), !dbg !193
  store float 2.500000e-01, float* %55, align 4, !dbg !193
  call void @llvm.dbg.declare(metadata %struct.Vec3_t* %56, metadata !194, metadata !51), !dbg !195
  call void @llvm.dbg.declare(metadata %struct.Vec3_t* %57, metadata !196, metadata !51), !dbg !197
  %103 = load %struct.Atoms_t*, %struct.Atoms_t** %6, align 8, !dbg !198
  call void @get_atom_extent(%struct.Vec3_t* %56, %struct.Vec3_t* %57, %struct.Atoms_t* %103), !dbg !199
  %104 = getelementptr inbounds %struct.Vec3_t, %struct.Vec3_t* %57, i32 0, i32 0, !dbg !200
  %105 = load float, float* %104, align 4, !dbg !200
  %106 = getelementptr inbounds %struct.Vec3_t, %struct.Vec3_t* %56, i32 0, i32 0, !dbg !201
  %107 = load float, float* %106, align 4, !dbg !201
  %108 = fsub float %105, %107, !dbg !202
  %109 = load float, float* %55, align 4, !dbg !203
  %110 = fmul float %108, %109, !dbg !204
  %111 = call float @floorf(float %110) #1, !dbg !205
  %112 = fptosi float %111 to i32, !dbg !206
  %113 = add nsw i32 %112, 1, !dbg !207
  store i32 %113, i32* %50, align 4, !dbg !208
  %114 = getelementptr inbounds %struct.Vec3_t, %struct.Vec3_t* %57, i32 0, i32 1, !dbg !209
  %115 = load float, float* %114, align 4, !dbg !209
  %116 = getelementptr inbounds %struct.Vec3_t, %struct.Vec3_t* %56, i32 0, i32 1, !dbg !210
  %117 = load float, float* %116, align 4, !dbg !210
  %118 = fsub float %115, %117, !dbg !211
  %119 = load float, float* %55, align 4, !dbg !212
  %120 = fmul float %118, %119, !dbg !213
  %121 = call float @floorf(float %120) #1, !dbg !214
  %122 = fptosi float %121 to i32, !dbg !215
  %123 = add nsw i32 %122, 1, !dbg !216
  store i32 %123, i32* %51, align 4, !dbg !217
  %124 = getelementptr inbounds %struct.Vec3_t, %struct.Vec3_t* %57, i32 0, i32 2, !dbg !218
  %125 = load float, float* %124, align 4, !dbg !218
  %126 = getelementptr inbounds %struct.Vec3_t, %struct.Vec3_t* %56, i32 0, i32 2, !dbg !219
  %127 = load float, float* %126, align 4, !dbg !219
  %128 = fsub float %125, %127, !dbg !220
  %129 = load float, float* %55, align 4, !dbg !221
  %130 = fmul float %128, %129, !dbg !222
  %131 = call float @floorf(float %130) #1, !dbg !223
  %132 = fptosi float %131 to i32, !dbg !224
  %133 = add nsw i32 %132, 1, !dbg !225
  store i32 %133, i32* %52, align 4, !dbg !226
  %134 = load i32, i32* %50, align 4, !dbg !227
  %135 = load i32, i32* %51, align 4, !dbg !228
  %136 = mul nsw i32 %134, %135, !dbg !229
  %137 = load i32, i32* %52, align 4, !dbg !230
  %138 = mul nsw i32 %136, %137, !dbg !231
  store i32 %138, i32* %49, align 4, !dbg !232
  %139 = load i32, i32* %49, align 4, !dbg !233
  %140 = sext i32 %139 to i64, !dbg !233
  %141 = mul i64 %140, 4, !dbg !234
  %142 = call noalias i8* @malloc(i64 %141) #6, !dbg !235
  %143 = bitcast i8* %142 to i32*, !dbg !236
  store i32* %143, i32** %53, align 8, !dbg !237
  store i32 0, i32* %48, align 4, !dbg !238
  br label %144, !dbg !240

; <label>:144:                                    ; preds = %153, %3
  %145 = load i32, i32* %48, align 4, !dbg !241
  %146 = load i32, i32* %49, align 4, !dbg !244
  %147 = icmp slt i32 %145, %146, !dbg !245
  br i1 %147, label %148, label %156, !dbg !246

; <label>:148:                                    ; preds = %144
  %149 = load i32, i32* %48, align 4, !dbg !247
  %150 = sext i32 %149 to i64, !dbg !249
  %151 = load i32*, i32** %53, align 8, !dbg !249
  %152 = getelementptr inbounds i32, i32* %151, i64 %150, !dbg !249
  store i32 -1, i32* %152, align 4, !dbg !250
  br label %153, !dbg !251

; <label>:153:                                    ; preds = %148
  %154 = load i32, i32* %48, align 4, !dbg !252
  %155 = add nsw i32 %154, 1, !dbg !252
  store i32 %155, i32* %48, align 4, !dbg !252
  br label %144, !dbg !254, !llvm.loop !255

; <label>:156:                                    ; preds = %144
  %157 = load %struct.Atoms_t*, %struct.Atoms_t** %6, align 8, !dbg !257
  %158 = getelementptr inbounds %struct.Atoms_t, %struct.Atoms_t* %157, i32 0, i32 1, !dbg !258
  %159 = load i32, i32* %158, align 8, !dbg !258
  %160 = sext i32 %159 to i64, !dbg !257
  %161 = mul i64 %160, 4, !dbg !259
  %162 = call noalias i8* @malloc(i64 %161) #6, !dbg !260
  %163 = bitcast i8* %162 to i32*, !dbg !261
  store i32* %163, i32** %54, align 8, !dbg !262
  store i32 0, i32* %18, align 4, !dbg !263
  br label %164, !dbg !265

; <label>:164:                                    ; preds = %175, %156
  %165 = load i32, i32* %18, align 4, !dbg !266
  %166 = load %struct.Atoms_t*, %struct.Atoms_t** %6, align 8, !dbg !269
  %167 = getelementptr inbounds %struct.Atoms_t, %struct.Atoms_t* %166, i32 0, i32 1, !dbg !270
  %168 = load i32, i32* %167, align 8, !dbg !270
  %169 = icmp slt i32 %165, %168, !dbg !271
  br i1 %169, label %170, label %178, !dbg !272

; <label>:170:                                    ; preds = %164
  %171 = load i32, i32* %18, align 4, !dbg !273
  %172 = sext i32 %171 to i64, !dbg !275
  %173 = load i32*, i32** %54, align 8, !dbg !275
  %174 = getelementptr inbounds i32, i32* %173, i64 %172, !dbg !275
  store i32 -1, i32* %174, align 4, !dbg !276
  br label %175, !dbg !277

; <label>:175:                                    ; preds = %170
  %176 = load i32, i32* %18, align 4, !dbg !278
  %177 = add nsw i32 %176, 1, !dbg !278
  store i32 %177, i32* %18, align 4, !dbg !278
  br label %164, !dbg !280, !llvm.loop !281

; <label>:178:                                    ; preds = %164
  store i32 0, i32* %18, align 4, !dbg !283
  br label %179, !dbg !285

; <label>:179:                                    ; preds = %257, %178
  %180 = load i32, i32* %18, align 4, !dbg !286
  %181 = load %struct.Atoms_t*, %struct.Atoms_t** %6, align 8, !dbg !289
  %182 = getelementptr inbounds %struct.Atoms_t, %struct.Atoms_t* %181, i32 0, i32 1, !dbg !290
  %183 = load i32, i32* %182, align 8, !dbg !290
  %184 = icmp slt i32 %180, %183, !dbg !291
  br i1 %184, label %185, label %260, !dbg !292

; <label>:185:                                    ; preds = %179
  %186 = load i32, i32* %18, align 4, !dbg !293
  %187 = sext i32 %186 to i64, !dbg !296
  %188 = load %struct.Atom_t*, %struct.Atom_t** %14, align 8, !dbg !296
  %189 = getelementptr inbounds %struct.Atom_t, %struct.Atom_t* %188, i64 %187, !dbg !296
  %190 = getelementptr inbounds %struct.Atom_t, %struct.Atom_t* %189, i32 0, i32 3, !dbg !297
  %191 = load float, float* %190, align 4, !dbg !297
  %192 = fcmp oeq float 0.000000e+00, %191, !dbg !298
  br i1 %192, label %193, label %194, !dbg !299

; <label>:193:                                    ; preds = %185
  br label %257, !dbg !300

; <label>:194:                                    ; preds = %185
  %195 = load i32, i32* %18, align 4, !dbg !302
  %196 = sext i32 %195 to i64, !dbg !303
  %197 = load %struct.Atom_t*, %struct.Atom_t** %14, align 8, !dbg !303
  %198 = getelementptr inbounds %struct.Atom_t, %struct.Atom_t* %197, i64 %196, !dbg !303
  %199 = getelementptr inbounds %struct.Atom_t, %struct.Atom_t* %198, i32 0, i32 0, !dbg !304
  %200 = load float, float* %199, align 4, !dbg !304
  %201 = getelementptr inbounds %struct.Vec3_t, %struct.Vec3_t* %56, i32 0, i32 0, !dbg !305
  %202 = load float, float* %201, align 4, !dbg !305
  %203 = fsub float %200, %202, !dbg !306
  %204 = load float, float* %55, align 4, !dbg !307
  %205 = fmul float %203, %204, !dbg !308
  %206 = call float @floorf(float %205) #1, !dbg !309
  %207 = fptosi float %206 to i32, !dbg !310
  store i32 %207, i32* %19, align 4, !dbg !311
  %208 = load i32, i32* %18, align 4, !dbg !312
  %209 = sext i32 %208 to i64, !dbg !313
  %210 = load %struct.Atom_t*, %struct.Atom_t** %14, align 8, !dbg !313
  %211 = getelementptr inbounds %struct.Atom_t, %struct.Atom_t* %210, i64 %209, !dbg !313
  %212 = getelementptr inbounds %struct.Atom_t, %struct.Atom_t* %211, i32 0, i32 1, !dbg !314
  %213 = load float, float* %212, align 4, !dbg !314
  %214 = getelementptr inbounds %struct.Vec3_t, %struct.Vec3_t* %56, i32 0, i32 1, !dbg !315
  %215 = load float, float* %214, align 4, !dbg !315
  %216 = fsub float %213, %215, !dbg !316
  %217 = load float, float* %55, align 4, !dbg !317
  %218 = fmul float %216, %217, !dbg !318
  %219 = call float @floorf(float %218) #1, !dbg !319
  %220 = fptosi float %219 to i32, !dbg !320
  store i32 %220, i32* %20, align 4, !dbg !321
  %221 = load i32, i32* %18, align 4, !dbg !322
  %222 = sext i32 %221 to i64, !dbg !323
  %223 = load %struct.Atom_t*, %struct.Atom_t** %14, align 8, !dbg !323
  %224 = getelementptr inbounds %struct.Atom_t, %struct.Atom_t* %223, i64 %222, !dbg !323
  %225 = getelementptr inbounds %struct.Atom_t, %struct.Atom_t* %224, i32 0, i32 2, !dbg !324
  %226 = load float, float* %225, align 4, !dbg !324
  %227 = getelementptr inbounds %struct.Vec3_t, %struct.Vec3_t* %56, i32 0, i32 2, !dbg !325
  %228 = load float, float* %227, align 4, !dbg !325
  %229 = fsub float %226, %228, !dbg !326
  %230 = load float, float* %55, align 4, !dbg !327
  %231 = fmul float %229, %230, !dbg !328
  %232 = call float @floorf(float %231) #1, !dbg !329
  %233 = fptosi float %232 to i32, !dbg !330
  store i32 %233, i32* %21, align 4, !dbg !331
  %234 = load i32, i32* %21, align 4, !dbg !332
  %235 = load i32, i32* %51, align 4, !dbg !333
  %236 = mul nsw i32 %234, %235, !dbg !334
  %237 = load i32, i32* %20, align 4, !dbg !335
  %238 = add nsw i32 %236, %237, !dbg !336
  %239 = load i32, i32* %50, align 4, !dbg !337
  %240 = mul nsw i32 %238, %239, !dbg !338
  %241 = load i32, i32* %19, align 4, !dbg !339
  %242 = add nsw i32 %240, %241, !dbg !340
  store i32 %242, i32* %48, align 4, !dbg !341
  %243 = load i32, i32* %48, align 4, !dbg !342
  %244 = sext i32 %243 to i64, !dbg !343
  %245 = load i32*, i32** %53, align 8, !dbg !343
  %246 = getelementptr inbounds i32, i32* %245, i64 %244, !dbg !343
  %247 = load i32, i32* %246, align 4, !dbg !343
  %248 = load i32, i32* %18, align 4, !dbg !344
  %249 = sext i32 %248 to i64, !dbg !345
  %250 = load i32*, i32** %54, align 8, !dbg !345
  %251 = getelementptr inbounds i32, i32* %250, i64 %249, !dbg !345
  store i32 %247, i32* %251, align 4, !dbg !346
  %252 = load i32, i32* %18, align 4, !dbg !347
  %253 = load i32, i32* %48, align 4, !dbg !348
  %254 = sext i32 %253 to i64, !dbg !349
  %255 = load i32*, i32** %53, align 8, !dbg !349
  %256 = getelementptr inbounds i32, i32* %255, i64 %254, !dbg !349
  store i32 %252, i32* %256, align 4, !dbg !350
  br label %257, !dbg !351

; <label>:257:                                    ; preds = %194, %193
  %258 = load i32, i32* %18, align 4, !dbg !352
  %259 = add nsw i32 %258, 1, !dbg !352
  store i32 %259, i32* %18, align 4, !dbg !352
  br label %179, !dbg !354, !llvm.loop !355

; <label>:260:                                    ; preds = %179
  store i32 0, i32* %48, align 4, !dbg !357
  br label %261, !dbg !359

; <label>:261:                                    ; preds = %475, %260
  %262 = load i32, i32* %48, align 4, !dbg !360
  %263 = load i32, i32* %49, align 4, !dbg !363
  %264 = icmp slt i32 %262, %263, !dbg !364
  br i1 %264, label %265, label %478, !dbg !365

; <label>:265:                                    ; preds = %261
  %266 = load i32, i32* %48, align 4, !dbg !366
  %267 = sext i32 %266 to i64, !dbg !369
  %268 = load i32*, i32** %53, align 8, !dbg !369
  %269 = getelementptr inbounds i32, i32* %268, i64 %267, !dbg !369
  %270 = load i32, i32* %269, align 4, !dbg !369
  store i32 %270, i32* %18, align 4, !dbg !370
  br label %271, !dbg !371

; <label>:271:                                    ; preds = %468, %265
  %272 = load i32, i32* %18, align 4, !dbg !372
  %273 = icmp ne i32 %272, -1, !dbg !375
  br i1 %273, label %274, label %474, !dbg !376

; <label>:274:                                    ; preds = %271
  %275 = load i32, i32* %18, align 4, !dbg !377
  %276 = sext i32 %275 to i64, !dbg !379
  %277 = load %struct.Atom_t*, %struct.Atom_t** %14, align 8, !dbg !379
  %278 = getelementptr inbounds %struct.Atom_t, %struct.Atom_t* %277, i64 %276, !dbg !379
  %279 = getelementptr inbounds %struct.Atom_t, %struct.Atom_t* %278, i32 0, i32 0, !dbg !380
  %280 = load float, float* %279, align 4, !dbg !380
  %281 = load float, float* %10, align 4, !dbg !381
  %282 = fsub float %280, %281, !dbg !382
  store float %282, float* %34, align 4, !dbg !383
  %283 = load i32, i32* %18, align 4, !dbg !384
  %284 = sext i32 %283 to i64, !dbg !385
  %285 = load %struct.Atom_t*, %struct.Atom_t** %14, align 8, !dbg !385
  %286 = getelementptr inbounds %struct.Atom_t, %struct.Atom_t* %285, i64 %284, !dbg !385
  %287 = getelementptr inbounds %struct.Atom_t, %struct.Atom_t* %286, i32 0, i32 1, !dbg !386
  %288 = load float, float* %287, align 4, !dbg !386
  %289 = load float, float* %11, align 4, !dbg !387
  %290 = fsub float %288, %289, !dbg !388
  store float %290, float* %35, align 4, !dbg !389
  %291 = load i32, i32* %18, align 4, !dbg !390
  %292 = sext i32 %291 to i64, !dbg !391
  %293 = load %struct.Atom_t*, %struct.Atom_t** %14, align 8, !dbg !391
  %294 = getelementptr inbounds %struct.Atom_t, %struct.Atom_t* %293, i64 %292, !dbg !391
  %295 = getelementptr inbounds %struct.Atom_t, %struct.Atom_t* %294, i32 0, i32 2, !dbg !392
  %296 = load float, float* %295, align 4, !dbg !392
  %297 = load float, float* %12, align 4, !dbg !393
  %298 = fsub float %296, %297, !dbg !394
  store float %298, float* %36, align 4, !dbg !395
  %299 = load i32, i32* %18, align 4, !dbg !396
  %300 = sext i32 %299 to i64, !dbg !397
  %301 = load %struct.Atom_t*, %struct.Atom_t** %14, align 8, !dbg !397
  %302 = getelementptr inbounds %struct.Atom_t, %struct.Atom_t* %301, i64 %300, !dbg !397
  %303 = getelementptr inbounds %struct.Atom_t, %struct.Atom_t* %302, i32 0, i32 3, !dbg !398
  %304 = load float, float* %303, align 4, !dbg !398
  store float %304, float* %37, align 4, !dbg !399
  %305 = load float, float* %34, align 4, !dbg !400
  %306 = load float, float* %16, align 4, !dbg !401
  %307 = fmul float %305, %306, !dbg !402
  %308 = fptosi float %307 to i32, !dbg !403
  store i32 %308, i32* %24, align 4, !dbg !404
  %309 = load float, float* %35, align 4, !dbg !405
  %310 = load float, float* %16, align 4, !dbg !406
  %311 = fmul float %309, %310, !dbg !407
  %312 = fptosi float %311 to i32, !dbg !408
  store i32 %312, i32* %27, align 4, !dbg !409
  %313 = load float, float* %36, align 4, !dbg !410
  %314 = load float, float* %16, align 4, !dbg !411
  %315 = fmul float %313, %314, !dbg !412
  %316 = fptosi float %315 to i32, !dbg !413
  store i32 %316, i32* %30, align 4, !dbg !414
  %317 = load i32, i32* %24, align 4, !dbg !415
  %318 = load i32, i32* %17, align 4, !dbg !416
  %319 = sub nsw i32 %317, %318, !dbg !417
  store i32 %319, i32* %22, align 4, !dbg !418
  %320 = load i32, i32* %24, align 4, !dbg !419
  %321 = load i32, i32* %17, align 4, !dbg !420
  %322 = add nsw i32 %320, %321, !dbg !421
  %323 = add nsw i32 %322, 1, !dbg !422
  store i32 %323, i32* %23, align 4, !dbg !423
  %324 = load i32, i32* %27, align 4, !dbg !424
  %325 = load i32, i32* %17, align 4, !dbg !425
  %326 = sub nsw i32 %324, %325, !dbg !426
  store i32 %326, i32* %25, align 4, !dbg !427
  %327 = load i32, i32* %27, align 4, !dbg !428
  %328 = load i32, i32* %17, align 4, !dbg !429
  %329 = add nsw i32 %327, %328, !dbg !430
  %330 = add nsw i32 %329, 1, !dbg !431
  store i32 %330, i32* %26, align 4, !dbg !432
  %331 = load i32, i32* %30, align 4, !dbg !433
  %332 = load i32, i32* %17, align 4, !dbg !434
  %333 = sub nsw i32 %331, %332, !dbg !435
  store i32 %333, i32* %28, align 4, !dbg !436
  %334 = load i32, i32* %30, align 4, !dbg !437
  %335 = load i32, i32* %17, align 4, !dbg !438
  %336 = add nsw i32 %334, %335, !dbg !439
  %337 = add nsw i32 %336, 1, !dbg !440
  store i32 %337, i32* %29, align 4, !dbg !441
  %338 = load i32, i32* %22, align 4, !dbg !442
  %339 = icmp slt i32 %338, 0, !dbg !444
  br i1 %339, label %340, label %341, !dbg !445

; <label>:340:                                    ; preds = %274
  store i32 0, i32* %22, align 4, !dbg !446
  br label %341, !dbg !448

; <label>:341:                                    ; preds = %340, %274
  %342 = load i32, i32* %23, align 4, !dbg !449
  %343 = load i32, i32* %7, align 4, !dbg !451
  %344 = icmp sge i32 %342, %343, !dbg !452
  br i1 %344, label %345, label %348, !dbg !453

; <label>:345:                                    ; preds = %341
  %346 = load i32, i32* %7, align 4, !dbg !454
  %347 = sub nsw i32 %346, 1, !dbg !456
  store i32 %347, i32* %23, align 4, !dbg !457
  br label %348, !dbg !458

; <label>:348:                                    ; preds = %345, %341
  %349 = load i32, i32* %25, align 4, !dbg !459
  %350 = icmp slt i32 %349, 0, !dbg !461
  br i1 %350, label %351, label %352, !dbg !462

; <label>:351:                                    ; preds = %348
  store i32 0, i32* %25, align 4, !dbg !463
  br label %352, !dbg !465

; <label>:352:                                    ; preds = %351, %348
  %353 = load i32, i32* %26, align 4, !dbg !466
  %354 = load i32, i32* %8, align 4, !dbg !468
  %355 = icmp sge i32 %353, %354, !dbg !469
  br i1 %355, label %356, label %359, !dbg !470

; <label>:356:                                    ; preds = %352
  %357 = load i32, i32* %8, align 4, !dbg !471
  %358 = sub nsw i32 %357, 1, !dbg !473
  store i32 %358, i32* %26, align 4, !dbg !474
  br label %359, !dbg !475

; <label>:359:                                    ; preds = %356, %352
  %360 = load i32, i32* %28, align 4, !dbg !476
  %361 = icmp slt i32 %360, 0, !dbg !478
  br i1 %361, label %362, label %363, !dbg !479

; <label>:362:                                    ; preds = %359
  store i32 0, i32* %28, align 4, !dbg !480
  br label %363, !dbg !482

; <label>:363:                                    ; preds = %362, %359
  %364 = load i32, i32* %29, align 4, !dbg !483
  %365 = load i32, i32* %9, align 4, !dbg !485
  %366 = icmp sge i32 %364, %365, !dbg !486
  br i1 %366, label %367, label %370, !dbg !487

; <label>:367:                                    ; preds = %363
  %368 = load i32, i32* %9, align 4, !dbg !488
  %369 = sub nsw i32 %368, 1, !dbg !490
  store i32 %369, i32* %29, align 4, !dbg !491
  br label %370, !dbg !492

; <label>:370:                                    ; preds = %367, %363
  %371 = load i32, i32* %22, align 4, !dbg !493
  %372 = sitofp i32 %371 to float, !dbg !493
  %373 = load float, float* %13, align 4, !dbg !494
  %374 = fmul float %372, %373, !dbg !495
  %375 = load float, float* %34, align 4, !dbg !496
  %376 = fsub float %374, %375, !dbg !497
  store float %376, float* %45, align 4, !dbg !498
  %377 = load i32, i32* %25, align 4, !dbg !499
  %378 = sitofp i32 %377 to float, !dbg !499
  %379 = load float, float* %13, align 4, !dbg !500
  %380 = fmul float %378, %379, !dbg !501
  %381 = load float, float* %35, align 4, !dbg !502
  %382 = fsub float %380, %381, !dbg !503
  store float %382, float* %46, align 4, !dbg !504
  %383 = load i32, i32* %28, align 4, !dbg !505
  %384 = sitofp i32 %383 to float, !dbg !505
  %385 = load float, float* %13, align 4, !dbg !506
  %386 = fmul float %384, %385, !dbg !507
  %387 = load float, float* %36, align 4, !dbg !508
  %388 = fsub float %386, %387, !dbg !509
  store float %388, float* %40, align 4, !dbg !510
  %389 = load i32, i32* %28, align 4, !dbg !511
  store i32 %389, i32* %21, align 4, !dbg !513
  br label %390, !dbg !514

; <label>:390:                                    ; preds = %461, %370
  %391 = load i32, i32* %21, align 4, !dbg !515
  %392 = load i32, i32* %29, align 4, !dbg !518
  %393 = icmp sle i32 %391, %392, !dbg !519
  br i1 %393, label %394, label %467, !dbg !520

; <label>:394:                                    ; preds = %390
  %395 = load i32, i32* %21, align 4, !dbg !521
  %396 = load i32, i32* %8, align 4, !dbg !523
  %397 = mul nsw i32 %395, %396, !dbg !524
  store i32 %397, i32* %32, align 4, !dbg !525
  %398 = load float, float* %40, align 4, !dbg !526
  %399 = load float, float* %40, align 4, !dbg !527
  %400 = fmul float %398, %399, !dbg !528
  store float %400, float* %41, align 4, !dbg !529
  %401 = load float, float* %46, align 4, !dbg !530
  store float %401, float* %39, align 4, !dbg !531
  %402 = load i32, i32* %25, align 4, !dbg !532
  store i32 %402, i32* %20, align 4, !dbg !534
  br label %403, !dbg !535

; <label>:403:                                    ; preds = %454, %394
  %404 = load i32, i32* %20, align 4, !dbg !536
  %405 = load i32, i32* %26, align 4, !dbg !539
  %406 = icmp sle i32 %404, %405, !dbg !540
  br i1 %406, label %407, label %460, !dbg !541

; <label>:407:                                    ; preds = %403
  %408 = load i32, i32* %32, align 4, !dbg !542
  %409 = load i32, i32* %20, align 4, !dbg !544
  %410 = add nsw i32 %408, %409, !dbg !545
  %411 = load i32, i32* %7, align 4, !dbg !546
  %412 = mul nsw i32 %410, %411, !dbg !547
  store i32 %412, i32* %33, align 4, !dbg !548
  %413 = load float, float* %39, align 4, !dbg !549
  %414 = load float, float* %39, align 4, !dbg !550
  %415 = fmul float %413, %414, !dbg !551
  %416 = load float, float* %41, align 4, !dbg !552
  %417 = fadd float %415, %416, !dbg !553
  store float %417, float* %42, align 4, !dbg !554
  %418 = load float, float* %45, align 4, !dbg !555
  store float %418, float* %38, align 4, !dbg !556
  %419 = load i32, i32* %33, align 4, !dbg !557
  %420 = load i32, i32* %22, align 4, !dbg !558
  %421 = add nsw i32 %419, %420, !dbg !559
  store i32 %421, i32* %31, align 4, !dbg !560
  %422 = load %struct.Lattice_t*, %struct.Lattice_t** %4, align 8, !dbg !561
  %423 = getelementptr inbounds %struct.Lattice_t, %struct.Lattice_t* %422, i32 0, i32 1, !dbg !562
  %424 = load float*, float** %423, align 8, !dbg !562
  %425 = load i32, i32* %31, align 4, !dbg !563
  %426 = sext i32 %425 to i64, !dbg !564
  %427 = getelementptr inbounds float, float* %424, i64 %426, !dbg !564
  store float* %427, float** %47, align 8, !dbg !565
  %428 = load i32, i32* %22, align 4, !dbg !566
  store i32 %428, i32* %19, align 4, !dbg !568
  br label %429, !dbg !569

; <label>:429:                                    ; preds = %445, %407
  %430 = load i32, i32* %19, align 4, !dbg !570
  %431 = load i32, i32* %23, align 4, !dbg !573
  %432 = icmp sle i32 %430, %431, !dbg !574
  br i1 %432, label %433, label %453, !dbg !575

; <label>:433:                                    ; preds = %429
  %434 = load float, float* %38, align 4, !dbg !576
  %435 = load float, float* %38, align 4, !dbg !578
  %436 = fmul float %434, %435, !dbg !579
  %437 = load float, float* %42, align 4, !dbg !580
  %438 = fadd float %436, %437, !dbg !581
  store float %438, float* %43, align 4, !dbg !582
  %439 = load float, float* %43, align 4, !dbg !583
  %440 = load float, float* %15, align 4, !dbg !585
  %441 = fcmp olt float %439, %440, !dbg !586
  br i1 %441, label %442, label %444, !dbg !587

; <label>:442:                                    ; preds = %433
  %443 = load float*, float** %47, align 8, !dbg !588
  store float 0.000000e+00, float* %443, align 4, !dbg !590
  br label %444, !dbg !591

; <label>:444:                                    ; preds = %442, %433
  br label %445, !dbg !592

; <label>:445:                                    ; preds = %444
  %446 = load i32, i32* %19, align 4, !dbg !593
  %447 = add nsw i32 %446, 1, !dbg !593
  store i32 %447, i32* %19, align 4, !dbg !593
  %448 = load float*, float** %47, align 8, !dbg !595
  %449 = getelementptr inbounds float, float* %448, i32 1, !dbg !595
  store float* %449, float** %47, align 8, !dbg !595
  %450 = load float, float* %13, align 4, !dbg !596
  %451 = load float, float* %38, align 4, !dbg !597
  %452 = fadd float %451, %450, !dbg !597
  store float %452, float* %38, align 4, !dbg !597
  br label %429, !dbg !598, !llvm.loop !599

; <label>:453:                                    ; preds = %429
  br label %454, !dbg !601

; <label>:454:                                    ; preds = %453
  %455 = load i32, i32* %20, align 4, !dbg !602
  %456 = add nsw i32 %455, 1, !dbg !602
  store i32 %456, i32* %20, align 4, !dbg !602
  %457 = load float, float* %13, align 4, !dbg !604
  %458 = load float, float* %39, align 4, !dbg !605
  %459 = fadd float %458, %457, !dbg !605
  store float %459, float* %39, align 4, !dbg !605
  br label %403, !dbg !606, !llvm.loop !607

; <label>:460:                                    ; preds = %403
  br label %461, !dbg !609

; <label>:461:                                    ; preds = %460
  %462 = load i32, i32* %21, align 4, !dbg !610
  %463 = add nsw i32 %462, 1, !dbg !610
  store i32 %463, i32* %21, align 4, !dbg !610
  %464 = load float, float* %13, align 4, !dbg !612
  %465 = load float, float* %40, align 4, !dbg !613
  %466 = fadd float %465, %464, !dbg !613
  store float %466, float* %40, align 4, !dbg !613
  br label %390, !dbg !614, !llvm.loop !615

; <label>:467:                                    ; preds = %390
  br label %468, !dbg !617

; <label>:468:                                    ; preds = %467
  %469 = load i32, i32* %18, align 4, !dbg !618
  %470 = sext i32 %469 to i64, !dbg !620
  %471 = load i32*, i32** %54, align 8, !dbg !620
  %472 = getelementptr inbounds i32, i32* %471, i64 %470, !dbg !620
  %473 = load i32, i32* %472, align 4, !dbg !620
  store i32 %473, i32* %18, align 4, !dbg !621
  br label %271, !dbg !622, !llvm.loop !623

; <label>:474:                                    ; preds = %271
  br label %475, !dbg !625

; <label>:475:                                    ; preds = %474
  %476 = load i32, i32* %48, align 4, !dbg !626
  %477 = add nsw i32 %476, 1, !dbg !626
  store i32 %477, i32* %48, align 4, !dbg !626
  br label %261, !dbg !628, !llvm.loop !629

; <label>:478:                                    ; preds = %261
  %479 = load i32*, i32** %54, align 8, !dbg !631
  %480 = bitcast i32* %479 to i8*, !dbg !631
  call void @free(i8* %480) #6, !dbg !632
  %481 = load i32*, i32** %53, align 8, !dbg !633
  %482 = bitcast i32* %481 to i8*, !dbg !633
  call void @free(i8* %482) #6, !dbg !634
  ret i32 0, !dbg !635
}

; Function Attrs: nounwind readnone
declare void @llvm.dbg.declare(metadata, metadata, metadata) #1

; Function Attrs: nounwind readnone
declare float @ceilf(float) #2

declare void @get_atom_extent(%struct.Vec3_t*, %struct.Vec3_t*, %struct.Atoms_t*) #3

; Function Attrs: nounwind readnone
declare float @floorf(float) #2

; Function Attrs: nounwind
declare noalias i8* @malloc(i64) #4

; Function Attrs: nounwind
declare void @free(i8*) #4

; Function Attrs: noinline
declare void @__check_dependence(i8*, i32, i8, i8*) #5

attributes #0 = { nounwind uwtable "disable-tail-calls"="false" "less-precise-fpmad"="false" "no-frame-pointer-elim"="true" "no-frame-pointer-elim-non-leaf" "no-infs-fp-math"="false" "no-jump-tables"="false" "no-nans-fp-math"="false" "no-signed-zeros-fp-math"="false" "stack-protector-buffer-size"="8" "target-cpu"="x86-64" "target-features"="+fxsr,+mmx,+sse,+sse2,+x87" "unsafe-fp-math"="false" "use-soft-float"="false" }
attributes #1 = { nounwind readnone }
attributes #2 = { nounwind readnone "disable-tail-calls"="false" "less-precise-fpmad"="false" "no-frame-pointer-elim"="true" "no-frame-pointer-elim-non-leaf" "no-infs-fp-math"="false" "no-nans-fp-math"="false" "no-signed-zeros-fp-math"="false" "stack-protector-buffer-size"="8" "target-cpu"="x86-64" "target-features"="+fxsr,+mmx,+sse,+sse2,+x87" "unsafe-fp-math"="false" "use-soft-float"="false" }
attributes #3 = { "disable-tail-calls"="false" "less-precise-fpmad"="false" "no-frame-pointer-elim"="true" "no-frame-pointer-elim-non-leaf" "no-infs-fp-math"="false" "no-nans-fp-math"="false" "no-signed-zeros-fp-math"="false" "stack-protector-buffer-size"="8" "target-cpu"="x86-64" "target-features"="+fxsr,+mmx,+sse,+sse2,+x87" "unsafe-fp-math"="false" "use-soft-float"="false" }
attributes #4 = { nounwind "disable-tail-calls"="false" "less-precise-fpmad"="false" "no-frame-pointer-elim"="true" "no-frame-pointer-elim-non-leaf" "no-infs-fp-math"="false" "no-nans-fp-math"="false" "no-signed-zeros-fp-math"="false" "stack-protector-buffer-size"="8" "target-cpu"="x86-64" "target-features"="+fxsr,+mmx,+sse,+sse2,+x87" "unsafe-fp-math"="false" "use-soft-float"="false" }
attributes #5 = { noinline }
attributes #6 = { nounwind }

!llvm.dbg.cu = !{!0}
!llvm.module.flags = !{!6, !7}
!llvm.ident = !{!8}

!0 = distinct !DICompileUnit(language: DW_LANG_C99, file: !1, producer: "clang version 4.0.0 (http://gitlab.lsc.ic.unicamp.br/luis.mattos/DoAcrossClause-clang.git 587724e9c6678af22b0b9d7649d8b84fb39aaaee) (http://gitlab.lsc.ic.unicamp.br/luis.mattos/DoAcrossClause.git 6f76a77790273ec9529638e6dc9391b206557c59)", isOptimized: false, runtimeVersion: 0, emissionKind: FullDebug, enums: !2, retainedTypes: !3)
!1 = !DIFile(filename: "CMakeFiles/cutcp.dir/excl-inst.c", directory: "/home/msc2018-ceb/ra212069/T11/parboil/benchmarks/cutcp/build")
!2 = !{}
!3 = !{!4, !5}
!4 = !DIBasicType(name: "int", size: 32, align: 32, encoding: DW_ATE_signed)
!5 = !DIDerivedType(tag: DW_TAG_pointer_type, baseType: !4, size: 64, align: 64)
!6 = !{i32 2, !"Dwarf Version", i32 4}
!7 = !{i32 2, !"Debug Info Version", i32 3}
!8 = !{!"clang version 4.0.0 (http://gitlab.lsc.ic.unicamp.br/luis.mattos/DoAcrossClause-clang.git 587724e9c6678af22b0b9d7649d8b84fb39aaaee) (http://gitlab.lsc.ic.unicamp.br/luis.mattos/DoAcrossClause.git 6f76a77790273ec9529638e6dc9391b206557c59)"}
!9 = distinct !DISubprogram(name: "remove_exclusions", scope: !1, file: !1, line: 19, type: !10, isLocal: false, isDefinition: true, scopeLine: 22, flags: DIFlagPrototyped, isOptimized: false, unit: !0, variables: !2)
!10 = !DISubroutineType(types: !11)
!11 = !{!4, !12, !30, !36}
!12 = !DIDerivedType(tag: DW_TAG_pointer_type, baseType: !13, size: 64, align: 64)
!13 = !DIDerivedType(tag: DW_TAG_typedef, name: "Lattice", file: !14, line: 40, baseType: !15)
!14 = !DIFile(filename: "/home/msc2018-ceb/ra212069/T11/parboil/benchmarks/cutcp/cutoff.h", directory: "/home/msc2018-ceb/ra212069/T11/parboil/benchmarks/cutcp/build")
!15 = distinct !DICompositeType(tag: DW_TAG_structure_type, name: "Lattice_t", file: !14, line: 37, size: 320, align: 64, elements: !16)
!16 = !{!17, !34}
!17 = !DIDerivedType(tag: DW_TAG_member, name: "dim", scope: !15, file: !14, line: 38, baseType: !18, size: 224, align: 32)
!18 = !DIDerivedType(tag: DW_TAG_typedef, name: "LatticeDim", file: !14, line: 32, baseType: !19)
!19 = distinct !DICompositeType(tag: DW_TAG_structure_type, name: "LatticeDim_t", file: !14, line: 23, size: 224, align: 32, elements: !20)
!20 = !{!21, !22, !23, !24, !33}
!21 = !DIDerivedType(tag: DW_TAG_member, name: "nx", scope: !19, file: !14, line: 25, baseType: !4, size: 32, align: 32)
!22 = !DIDerivedType(tag: DW_TAG_member, name: "ny", scope: !19, file: !14, line: 25, baseType: !4, size: 32, align: 32, offset: 32)
!23 = !DIDerivedType(tag: DW_TAG_member, name: "nz", scope: !19, file: !14, line: 25, baseType: !4, size: 32, align: 32, offset: 64)
!24 = !DIDerivedType(tag: DW_TAG_member, name: "lo", scope: !19, file: !14, line: 28, baseType: !25, size: 96, align: 32, offset: 96)
!25 = !DIDerivedType(tag: DW_TAG_typedef, name: "Vec3", file: !26, line: 23, baseType: !27)
!26 = !DIFile(filename: "/home/msc2018-ceb/ra212069/T11/parboil/benchmarks/cutcp/atom.h", directory: "/home/msc2018-ceb/ra212069/T11/parboil/benchmarks/cutcp/build")
!27 = distinct !DICompositeType(tag: DW_TAG_structure_type, name: "Vec3_t", file: !26, line: 23, size: 96, align: 32, elements: !28)
!28 = !{!29, !31, !32}
!29 = !DIDerivedType(tag: DW_TAG_member, name: "x", scope: !27, file: !26, line: 23, baseType: !30, size: 32, align: 32)
!30 = !DIBasicType(name: "float", size: 32, align: 32, encoding: DW_ATE_float)
!31 = !DIDerivedType(tag: DW_TAG_member, name: "y", scope: !27, file: !26, line: 23, baseType: !30, size: 32, align: 32, offset: 32)
!32 = !DIDerivedType(tag: DW_TAG_member, name: "z", scope: !27, file: !26, line: 23, baseType: !30, size: 32, align: 32, offset: 64)
!33 = !DIDerivedType(tag: DW_TAG_member, name: "h", scope: !19, file: !14, line: 31, baseType: !30, size: 32, align: 32, offset: 192)
!34 = !DIDerivedType(tag: DW_TAG_member, name: "lattice", scope: !15, file: !14, line: 39, baseType: !35, size: 64, align: 64, offset: 256)
!35 = !DIDerivedType(tag: DW_TAG_pointer_type, baseType: !30, size: 64, align: 64)
!36 = !DIDerivedType(tag: DW_TAG_pointer_type, baseType: !37, size: 64, align: 64)
!37 = !DIDerivedType(tag: DW_TAG_typedef, name: "Atoms", file: !26, line: 21, baseType: !38)
!38 = distinct !DICompositeType(tag: DW_TAG_structure_type, name: "Atoms_t", file: !26, line: 18, size: 128, align: 64, elements: !39)
!39 = !{!40, !49}
!40 = !DIDerivedType(tag: DW_TAG_member, name: "atoms", scope: !38, file: !26, line: 19, baseType: !41, size: 64, align: 64)
!41 = !DIDerivedType(tag: DW_TAG_pointer_type, baseType: !42, size: 64, align: 64)
!42 = !DIDerivedType(tag: DW_TAG_typedef, name: "Atom", file: !26, line: 16, baseType: !43)
!43 = distinct !DICompositeType(tag: DW_TAG_structure_type, name: "Atom_t", file: !26, line: 16, size: 128, align: 32, elements: !44)
!44 = !{!45, !46, !47, !48}
!45 = !DIDerivedType(tag: DW_TAG_member, name: "x", scope: !43, file: !26, line: 16, baseType: !30, size: 32, align: 32)
!46 = !DIDerivedType(tag: DW_TAG_member, name: "y", scope: !43, file: !26, line: 16, baseType: !30, size: 32, align: 32, offset: 32)
!47 = !DIDerivedType(tag: DW_TAG_member, name: "z", scope: !43, file: !26, line: 16, baseType: !30, size: 32, align: 32, offset: 64)
!48 = !DIDerivedType(tag: DW_TAG_member, name: "q", scope: !43, file: !26, line: 16, baseType: !30, size: 32, align: 32, offset: 96)
!49 = !DIDerivedType(tag: DW_TAG_member, name: "size", scope: !38, file: !26, line: 20, baseType: !4, size: 32, align: 32, offset: 64)
!50 = !DILocalVariable(name: "lattice", arg: 1, scope: !9, file: !1, line: 19, type: !12)
!51 = !DIExpression()
!52 = !DILocation(line: 19, column: 39, scope: !9)
!53 = !DILocalVariable(name: "cutoff", arg: 2, scope: !9, file: !1, line: 20, type: !30)
!54 = !DILocation(line: 20, column: 36, scope: !9)
!55 = !DILocalVariable(name: "atoms", arg: 3, scope: !9, file: !1, line: 21, type: !36)
!56 = !DILocation(line: 21, column: 37, scope: !9)
!57 = !DILocalVariable(name: "nx", scope: !9, file: !1, line: 23, type: !4)
!58 = !DILocation(line: 23, column: 7, scope: !9)
!59 = !DILocation(line: 23, column: 12, scope: !9)
!60 = !DILocation(line: 23, column: 21, scope: !9)
!61 = !DILocation(line: 23, column: 25, scope: !9)
!62 = !DILocalVariable(name: "ny", scope: !9, file: !1, line: 24, type: !4)
!63 = !DILocation(line: 24, column: 7, scope: !9)
!64 = !DILocation(line: 24, column: 12, scope: !9)
!65 = !DILocation(line: 24, column: 21, scope: !9)
!66 = !DILocation(line: 24, column: 25, scope: !9)
!67 = !DILocalVariable(name: "nz", scope: !9, file: !1, line: 25, type: !4)
!68 = !DILocation(line: 25, column: 7, scope: !9)
!69 = !DILocation(line: 25, column: 12, scope: !9)
!70 = !DILocation(line: 25, column: 21, scope: !9)
!71 = !DILocation(line: 25, column: 25, scope: !9)
!72 = !DILocalVariable(name: "xlo", scope: !9, file: !1, line: 26, type: !30)
!73 = !DILocation(line: 26, column: 9, scope: !9)
!74 = !DILocation(line: 26, column: 15, scope: !9)
!75 = !DILocation(line: 26, column: 24, scope: !9)
!76 = !DILocation(line: 26, column: 28, scope: !9)
!77 = !DILocation(line: 26, column: 31, scope: !9)
!78 = !DILocalVariable(name: "ylo", scope: !9, file: !1, line: 27, type: !30)
!79 = !DILocation(line: 27, column: 9, scope: !9)
!80 = !DILocation(line: 27, column: 15, scope: !9)
!81 = !DILocation(line: 27, column: 24, scope: !9)
!82 = !DILocation(line: 27, column: 28, scope: !9)
!83 = !DILocation(line: 27, column: 31, scope: !9)
!84 = !DILocalVariable(name: "zlo", scope: !9, file: !1, line: 28, type: !30)
!85 = !DILocation(line: 28, column: 9, scope: !9)
!86 = !DILocation(line: 28, column: 15, scope: !9)
!87 = !DILocation(line: 28, column: 24, scope: !9)
!88 = !DILocation(line: 28, column: 28, scope: !9)
!89 = !DILocation(line: 28, column: 31, scope: !9)
!90 = !DILocalVariable(name: "gridspacing", scope: !9, file: !1, line: 29, type: !30)
!91 = !DILocation(line: 29, column: 9, scope: !9)
!92 = !DILocation(line: 29, column: 23, scope: !9)
!93 = !DILocation(line: 29, column: 32, scope: !9)
!94 = !DILocation(line: 29, column: 36, scope: !9)
!95 = !DILocalVariable(name: "atom", scope: !9, file: !1, line: 30, type: !41)
!96 = !DILocation(line: 30, column: 9, scope: !9)
!97 = !DILocation(line: 30, column: 16, scope: !9)
!98 = !DILocation(line: 30, column: 23, scope: !9)
!99 = !DILocalVariable(name: "a2", scope: !9, file: !1, line: 32, type: !100)
!100 = !DIDerivedType(tag: DW_TAG_const_type, baseType: !30)
!101 = !DILocation(line: 32, column: 15, scope: !9)
!102 = !DILocation(line: 32, column: 20, scope: !9)
!103 = !DILocation(line: 32, column: 29, scope: !9)
!104 = !DILocation(line: 32, column: 27, scope: !9)
!105 = !DILocalVariable(name: "inv_gridspacing", scope: !9, file: !1, line: 33, type: !100)
!106 = !DILocation(line: 33, column: 15, scope: !9)
!107 = !DILocation(line: 33, column: 39, scope: !9)
!108 = !DILocation(line: 33, column: 37, scope: !9)
!109 = !DILocalVariable(name: "radius", scope: !9, file: !1, line: 34, type: !110)
!110 = !DIDerivedType(tag: DW_TAG_const_type, baseType: !4)
!111 = !DILocation(line: 34, column: 13, scope: !9)
!112 = !DILocation(line: 34, column: 33, scope: !9)
!113 = !DILocation(line: 34, column: 42, scope: !9)
!114 = !DILocation(line: 34, column: 40, scope: !9)
!115 = !DILocation(line: 34, column: 27, scope: !9)
!116 = !DILocation(line: 34, column: 22, scope: !9)
!117 = !DILocation(line: 34, column: 59, scope: !9)
!118 = !DILocalVariable(name: "n", scope: !9, file: !1, line: 37, type: !4)
!119 = !DILocation(line: 37, column: 7, scope: !9)
!120 = !DILocalVariable(name: "i", scope: !9, file: !1, line: 38, type: !4)
!121 = !DILocation(line: 38, column: 7, scope: !9)
!122 = !DILocalVariable(name: "j", scope: !9, file: !1, line: 38, type: !4)
!123 = !DILocation(line: 38, column: 10, scope: !9)
!124 = !DILocalVariable(name: "k", scope: !9, file: !1, line: 38, type: !4)
!125 = !DILocation(line: 38, column: 13, scope: !9)
!126 = !DILocalVariable(name: "ia", scope: !9, file: !1, line: 39, type: !4)
!127 = !DILocation(line: 39, column: 7, scope: !9)
!128 = !DILocalVariable(name: "ib", scope: !9, file: !1, line: 39, type: !4)
!129 = !DILocation(line: 39, column: 11, scope: !9)
!130 = !DILocalVariable(name: "ic", scope: !9, file: !1, line: 39, type: !4)
!131 = !DILocation(line: 39, column: 15, scope: !9)
!132 = !DILocalVariable(name: "ja", scope: !9, file: !1, line: 40, type: !4)
!133 = !DILocation(line: 40, column: 7, scope: !9)
!134 = !DILocalVariable(name: "jb", scope: !9, file: !1, line: 40, type: !4)
!135 = !DILocation(line: 40, column: 11, scope: !9)
!136 = !DILocalVariable(name: "jc", scope: !9, file: !1, line: 40, type: !4)
!137 = !DILocation(line: 40, column: 15, scope: !9)
!138 = !DILocalVariable(name: "ka", scope: !9, file: !1, line: 41, type: !4)
!139 = !DILocation(line: 41, column: 7, scope: !9)
!140 = !DILocalVariable(name: "kb", scope: !9, file: !1, line: 41, type: !4)
!141 = !DILocation(line: 41, column: 11, scope: !9)
!142 = !DILocalVariable(name: "kc", scope: !9, file: !1, line: 41, type: !4)
!143 = !DILocation(line: 41, column: 15, scope: !9)
!144 = !DILocalVariable(name: "index", scope: !9, file: !1, line: 42, type: !4)
!145 = !DILocation(line: 42, column: 7, scope: !9)
!146 = !DILocalVariable(name: "koff", scope: !9, file: !1, line: 43, type: !4)
!147 = !DILocation(line: 43, column: 7, scope: !9)
!148 = !DILocalVariable(name: "jkoff", scope: !9, file: !1, line: 43, type: !4)
!149 = !DILocation(line: 43, column: 13, scope: !9)
!150 = !DILocalVariable(name: "x", scope: !9, file: !1, line: 45, type: !30)
!151 = !DILocation(line: 45, column: 9, scope: !9)
!152 = !DILocalVariable(name: "y", scope: !9, file: !1, line: 45, type: !30)
!153 = !DILocation(line: 45, column: 12, scope: !9)
!154 = !DILocalVariable(name: "z", scope: !9, file: !1, line: 45, type: !30)
!155 = !DILocation(line: 45, column: 15, scope: !9)
!156 = !DILocalVariable(name: "q", scope: !9, file: !1, line: 45, type: !30)
!157 = !DILocation(line: 45, column: 18, scope: !9)
!158 = !DILocalVariable(name: "dx", scope: !9, file: !1, line: 46, type: !30)
!159 = !DILocation(line: 46, column: 9, scope: !9)
!160 = !DILocalVariable(name: "dy", scope: !9, file: !1, line: 46, type: !30)
!161 = !DILocation(line: 46, column: 13, scope: !9)
!162 = !DILocalVariable(name: "dz", scope: !9, file: !1, line: 46, type: !30)
!163 = !DILocation(line: 46, column: 17, scope: !9)
!164 = !DILocalVariable(name: "dz2", scope: !9, file: !1, line: 47, type: !30)
!165 = !DILocation(line: 47, column: 9, scope: !9)
!166 = !DILocalVariable(name: "dydz2", scope: !9, file: !1, line: 47, type: !30)
!167 = !DILocation(line: 47, column: 14, scope: !9)
!168 = !DILocalVariable(name: "r2", scope: !9, file: !1, line: 47, type: !30)
!169 = !DILocation(line: 47, column: 21, scope: !9)
!170 = !DILocalVariable(name: "e", scope: !9, file: !1, line: 48, type: !30)
!171 = !DILocation(line: 48, column: 9, scope: !9)
!172 = !DILocalVariable(name: "xstart", scope: !9, file: !1, line: 49, type: !30)
!173 = !DILocation(line: 49, column: 9, scope: !9)
!174 = !DILocalVariable(name: "ystart", scope: !9, file: !1, line: 49, type: !30)
!175 = !DILocation(line: 49, column: 17, scope: !9)
!176 = !DILocalVariable(name: "pg", scope: !9, file: !1, line: 51, type: !35)
!177 = !DILocation(line: 51, column: 10, scope: !9)
!178 = !DILocalVariable(name: "gindex", scope: !9, file: !1, line: 53, type: !4)
!179 = !DILocation(line: 53, column: 7, scope: !9)
!180 = !DILocalVariable(name: "ncell", scope: !9, file: !1, line: 54, type: !4)
!181 = !DILocation(line: 54, column: 7, scope: !9)
!182 = !DILocalVariable(name: "nxcell", scope: !9, file: !1, line: 54, type: !4)
!183 = !DILocation(line: 54, column: 14, scope: !9)
!184 = !DILocalVariable(name: "nycell", scope: !9, file: !1, line: 54, type: !4)
!185 = !DILocation(line: 54, column: 22, scope: !9)
!186 = !DILocalVariable(name: "nzcell", scope: !9, file: !1, line: 54, type: !4)
!187 = !DILocation(line: 54, column: 30, scope: !9)
!188 = !DILocalVariable(name: "first", scope: !9, file: !1, line: 55, type: !5)
!189 = !DILocation(line: 55, column: 8, scope: !9)
!190 = !DILocalVariable(name: "next", scope: !9, file: !1, line: 55, type: !5)
!191 = !DILocation(line: 55, column: 16, scope: !9)
!192 = !DILocalVariable(name: "inv_cellen", scope: !9, file: !1, line: 56, type: !30)
!193 = !DILocation(line: 56, column: 9, scope: !9)
!194 = !DILocalVariable(name: "minext", scope: !9, file: !1, line: 57, type: !25)
!195 = !DILocation(line: 57, column: 8, scope: !9)
!196 = !DILocalVariable(name: "maxext", scope: !9, file: !1, line: 57, type: !25)
!197 = !DILocation(line: 57, column: 16, scope: !9)
!198 = !DILocation(line: 60, column: 37, scope: !9)
!199 = !DILocation(line: 60, column: 3, scope: !9)
!200 = !DILocation(line: 63, column: 32, scope: !9)
!201 = !DILocation(line: 63, column: 43, scope: !9)
!202 = !DILocation(line: 63, column: 34, scope: !9)
!203 = !DILocation(line: 63, column: 48, scope: !9)
!204 = !DILocation(line: 63, column: 46, scope: !9)
!205 = !DILocation(line: 63, column: 17, scope: !9)
!206 = !DILocation(line: 63, column: 12, scope: !9)
!207 = !DILocation(line: 63, column: 60, scope: !9)
!208 = !DILocation(line: 63, column: 10, scope: !9)
!209 = !DILocation(line: 64, column: 32, scope: !9)
!210 = !DILocation(line: 64, column: 43, scope: !9)
!211 = !DILocation(line: 64, column: 34, scope: !9)
!212 = !DILocation(line: 64, column: 48, scope: !9)
!213 = !DILocation(line: 64, column: 46, scope: !9)
!214 = !DILocation(line: 64, column: 17, scope: !9)
!215 = !DILocation(line: 64, column: 12, scope: !9)
!216 = !DILocation(line: 64, column: 60, scope: !9)
!217 = !DILocation(line: 64, column: 10, scope: !9)
!218 = !DILocation(line: 65, column: 32, scope: !9)
!219 = !DILocation(line: 65, column: 43, scope: !9)
!220 = !DILocation(line: 65, column: 34, scope: !9)
!221 = !DILocation(line: 65, column: 48, scope: !9)
!222 = !DILocation(line: 65, column: 46, scope: !9)
!223 = !DILocation(line: 65, column: 17, scope: !9)
!224 = !DILocation(line: 65, column: 12, scope: !9)
!225 = !DILocation(line: 65, column: 60, scope: !9)
!226 = !DILocation(line: 65, column: 10, scope: !9)
!227 = !DILocation(line: 66, column: 11, scope: !9)
!228 = !DILocation(line: 66, column: 20, scope: !9)
!229 = !DILocation(line: 66, column: 18, scope: !9)
!230 = !DILocation(line: 66, column: 29, scope: !9)
!231 = !DILocation(line: 66, column: 27, scope: !9)
!232 = !DILocation(line: 66, column: 9, scope: !9)
!233 = !DILocation(line: 69, column: 25, scope: !9)
!234 = !DILocation(line: 69, column: 31, scope: !9)
!235 = !DILocation(line: 69, column: 18, scope: !9)
!236 = !DILocation(line: 69, column: 11, scope: !9)
!237 = !DILocation(line: 69, column: 9, scope: !9)
!238 = !DILocation(line: 70, column: 15, scope: !239)
!239 = distinct !DILexicalBlock(scope: !9, file: !1, line: 70, column: 3)
!240 = !DILocation(line: 70, column: 8, scope: !239)
!241 = !DILocation(line: 70, column: 20, scope: !242)
!242 = !DILexicalBlockFile(scope: !243, file: !1, discriminator: 1)
!243 = distinct !DILexicalBlock(scope: !239, file: !1, line: 70, column: 3)
!244 = !DILocation(line: 70, column: 29, scope: !242)
!245 = !DILocation(line: 70, column: 27, scope: !242)
!246 = !DILocation(line: 70, column: 3, scope: !242)
!247 = !DILocation(line: 71, column: 11, scope: !248)
!248 = distinct !DILexicalBlock(scope: !243, file: !1, line: 70, column: 46)
!249 = !DILocation(line: 71, column: 5, scope: !248)
!250 = !DILocation(line: 71, column: 19, scope: !248)
!251 = !DILocation(line: 72, column: 3, scope: !248)
!252 = !DILocation(line: 70, column: 42, scope: !253)
!253 = !DILexicalBlockFile(scope: !243, file: !1, discriminator: 2)
!254 = !DILocation(line: 70, column: 3, scope: !253)
!255 = distinct !{!255, !256}
!256 = !DILocation(line: 70, column: 3, scope: !9)
!257 = !DILocation(line: 73, column: 24, scope: !9)
!258 = !DILocation(line: 73, column: 31, scope: !9)
!259 = !DILocation(line: 73, column: 36, scope: !9)
!260 = !DILocation(line: 73, column: 17, scope: !9)
!261 = !DILocation(line: 73, column: 10, scope: !9)
!262 = !DILocation(line: 73, column: 8, scope: !9)
!263 = !DILocation(line: 74, column: 10, scope: !264)
!264 = distinct !DILexicalBlock(scope: !9, file: !1, line: 74, column: 3)
!265 = !DILocation(line: 74, column: 8, scope: !264)
!266 = !DILocation(line: 74, column: 15, scope: !267)
!267 = !DILexicalBlockFile(scope: !268, file: !1, discriminator: 1)
!268 = distinct !DILexicalBlock(scope: !264, file: !1, line: 74, column: 3)
!269 = !DILocation(line: 74, column: 19, scope: !267)
!270 = !DILocation(line: 74, column: 26, scope: !267)
!271 = !DILocation(line: 74, column: 17, scope: !267)
!272 = !DILocation(line: 74, column: 3, scope: !267)
!273 = !DILocation(line: 75, column: 10, scope: !274)
!274 = distinct !DILexicalBlock(scope: !268, file: !1, line: 74, column: 37)
!275 = !DILocation(line: 75, column: 5, scope: !274)
!276 = !DILocation(line: 75, column: 13, scope: !274)
!277 = !DILocation(line: 76, column: 3, scope: !274)
!278 = !DILocation(line: 74, column: 33, scope: !279)
!279 = !DILexicalBlockFile(scope: !268, file: !1, discriminator: 2)
!280 = !DILocation(line: 74, column: 3, scope: !279)
!281 = distinct !{!281, !282}
!282 = !DILocation(line: 74, column: 3, scope: !9)
!283 = !DILocation(line: 79, column: 10, scope: !284)
!284 = distinct !DILexicalBlock(scope: !9, file: !1, line: 79, column: 3)
!285 = !DILocation(line: 79, column: 8, scope: !284)
!286 = !DILocation(line: 79, column: 15, scope: !287)
!287 = !DILexicalBlockFile(scope: !288, file: !1, discriminator: 1)
!288 = distinct !DILexicalBlock(scope: !284, file: !1, line: 79, column: 3)
!289 = !DILocation(line: 79, column: 19, scope: !287)
!290 = !DILocation(line: 79, column: 26, scope: !287)
!291 = !DILocation(line: 79, column: 17, scope: !287)
!292 = !DILocation(line: 79, column: 3, scope: !287)
!293 = !DILocation(line: 80, column: 19, scope: !294)
!294 = distinct !DILexicalBlock(scope: !295, file: !1, line: 80, column: 9)
!295 = distinct !DILexicalBlock(scope: !288, file: !1, line: 79, column: 37)
!296 = !DILocation(line: 80, column: 14, scope: !294)
!297 = !DILocation(line: 80, column: 22, scope: !294)
!298 = !DILocation(line: 80, column: 11, scope: !294)
!299 = !DILocation(line: 80, column: 9, scope: !295)
!300 = !DILocation(line: 81, column: 7, scope: !301)
!301 = distinct !DILexicalBlock(scope: !294, file: !1, line: 80, column: 25)
!302 = !DILocation(line: 83, column: 27, scope: !295)
!303 = !DILocation(line: 83, column: 22, scope: !295)
!304 = !DILocation(line: 83, column: 30, scope: !295)
!305 = !DILocation(line: 83, column: 41, scope: !295)
!306 = !DILocation(line: 83, column: 32, scope: !295)
!307 = !DILocation(line: 83, column: 46, scope: !295)
!308 = !DILocation(line: 83, column: 44, scope: !295)
!309 = !DILocation(line: 83, column: 14, scope: !295)
!310 = !DILocation(line: 83, column: 9, scope: !295)
!311 = !DILocation(line: 83, column: 7, scope: !295)
!312 = !DILocation(line: 84, column: 27, scope: !295)
!313 = !DILocation(line: 84, column: 22, scope: !295)
!314 = !DILocation(line: 84, column: 30, scope: !295)
!315 = !DILocation(line: 84, column: 41, scope: !295)
!316 = !DILocation(line: 84, column: 32, scope: !295)
!317 = !DILocation(line: 84, column: 46, scope: !295)
!318 = !DILocation(line: 84, column: 44, scope: !295)
!319 = !DILocation(line: 84, column: 14, scope: !295)
!320 = !DILocation(line: 84, column: 9, scope: !295)
!321 = !DILocation(line: 84, column: 7, scope: !295)
!322 = !DILocation(line: 85, column: 27, scope: !295)
!323 = !DILocation(line: 85, column: 22, scope: !295)
!324 = !DILocation(line: 85, column: 30, scope: !295)
!325 = !DILocation(line: 85, column: 41, scope: !295)
!326 = !DILocation(line: 85, column: 32, scope: !295)
!327 = !DILocation(line: 85, column: 46, scope: !295)
!328 = !DILocation(line: 85, column: 44, scope: !295)
!329 = !DILocation(line: 85, column: 14, scope: !295)
!330 = !DILocation(line: 85, column: 9, scope: !295)
!331 = !DILocation(line: 85, column: 7, scope: !295)
!332 = !DILocation(line: 86, column: 15, scope: !295)
!333 = !DILocation(line: 86, column: 19, scope: !295)
!334 = !DILocation(line: 86, column: 17, scope: !295)
!335 = !DILocation(line: 86, column: 28, scope: !295)
!336 = !DILocation(line: 86, column: 26, scope: !295)
!337 = !DILocation(line: 86, column: 33, scope: !295)
!338 = !DILocation(line: 86, column: 31, scope: !295)
!339 = !DILocation(line: 86, column: 42, scope: !295)
!340 = !DILocation(line: 86, column: 40, scope: !295)
!341 = !DILocation(line: 86, column: 12, scope: !295)
!342 = !DILocation(line: 87, column: 21, scope: !295)
!343 = !DILocation(line: 87, column: 15, scope: !295)
!344 = !DILocation(line: 87, column: 10, scope: !295)
!345 = !DILocation(line: 87, column: 5, scope: !295)
!346 = !DILocation(line: 87, column: 13, scope: !295)
!347 = !DILocation(line: 88, column: 21, scope: !295)
!348 = !DILocation(line: 88, column: 11, scope: !295)
!349 = !DILocation(line: 88, column: 5, scope: !295)
!350 = !DILocation(line: 88, column: 19, scope: !295)
!351 = !DILocation(line: 89, column: 3, scope: !295)
!352 = !DILocation(line: 79, column: 33, scope: !353)
!353 = !DILexicalBlockFile(scope: !288, file: !1, discriminator: 2)
!354 = !DILocation(line: 79, column: 3, scope: !353)
!355 = distinct !{!355, !356}
!356 = !DILocation(line: 79, column: 3, scope: !9)
!357 = !DILocation(line: 92, column: 15, scope: !358)
!358 = distinct !DILexicalBlock(scope: !9, file: !1, line: 92, column: 3)
!359 = !DILocation(line: 92, column: 8, scope: !358)
!360 = !DILocation(line: 92, column: 20, scope: !361)
!361 = !DILexicalBlockFile(scope: !362, file: !1, discriminator: 1)
!362 = distinct !DILexicalBlock(scope: !358, file: !1, line: 92, column: 3)
!363 = !DILocation(line: 92, column: 29, scope: !361)
!364 = !DILocation(line: 92, column: 27, scope: !361)
!365 = !DILocation(line: 92, column: 3, scope: !361)
!366 = !DILocation(line: 93, column: 20, scope: !367)
!367 = distinct !DILexicalBlock(scope: !368, file: !1, line: 93, column: 5)
!368 = distinct !DILexicalBlock(scope: !362, file: !1, line: 92, column: 46)
!369 = !DILocation(line: 93, column: 14, scope: !367)
!370 = !DILocation(line: 93, column: 12, scope: !367)
!371 = !DILocation(line: 93, column: 10, scope: !367)
!372 = !DILocation(line: 93, column: 29, scope: !373)
!373 = !DILexicalBlockFile(scope: !374, file: !1, discriminator: 1)
!374 = distinct !DILexicalBlock(scope: !367, file: !1, line: 93, column: 5)
!375 = !DILocation(line: 93, column: 31, scope: !373)
!376 = !DILocation(line: 93, column: 5, scope: !373)
!377 = !DILocation(line: 94, column: 16, scope: !378)
!378 = distinct !DILexicalBlock(scope: !374, file: !1, line: 93, column: 51)
!379 = !DILocation(line: 94, column: 11, scope: !378)
!380 = !DILocation(line: 94, column: 19, scope: !378)
!381 = !DILocation(line: 94, column: 23, scope: !378)
!382 = !DILocation(line: 94, column: 21, scope: !378)
!383 = !DILocation(line: 94, column: 9, scope: !378)
!384 = !DILocation(line: 95, column: 16, scope: !378)
!385 = !DILocation(line: 95, column: 11, scope: !378)
!386 = !DILocation(line: 95, column: 19, scope: !378)
!387 = !DILocation(line: 95, column: 23, scope: !378)
!388 = !DILocation(line: 95, column: 21, scope: !378)
!389 = !DILocation(line: 95, column: 9, scope: !378)
!390 = !DILocation(line: 96, column: 16, scope: !378)
!391 = !DILocation(line: 96, column: 11, scope: !378)
!392 = !DILocation(line: 96, column: 19, scope: !378)
!393 = !DILocation(line: 96, column: 23, scope: !378)
!394 = !DILocation(line: 96, column: 21, scope: !378)
!395 = !DILocation(line: 96, column: 9, scope: !378)
!396 = !DILocation(line: 97, column: 16, scope: !378)
!397 = !DILocation(line: 97, column: 11, scope: !378)
!398 = !DILocation(line: 97, column: 19, scope: !378)
!399 = !DILocation(line: 97, column: 9, scope: !378)
!400 = !DILocation(line: 100, column: 18, scope: !378)
!401 = !DILocation(line: 100, column: 22, scope: !378)
!402 = !DILocation(line: 100, column: 20, scope: !378)
!403 = !DILocation(line: 100, column: 12, scope: !378)
!404 = !DILocation(line: 100, column: 10, scope: !378)
!405 = !DILocation(line: 101, column: 18, scope: !378)
!406 = !DILocation(line: 101, column: 22, scope: !378)
!407 = !DILocation(line: 101, column: 20, scope: !378)
!408 = !DILocation(line: 101, column: 12, scope: !378)
!409 = !DILocation(line: 101, column: 10, scope: !378)
!410 = !DILocation(line: 102, column: 18, scope: !378)
!411 = !DILocation(line: 102, column: 22, scope: !378)
!412 = !DILocation(line: 102, column: 20, scope: !378)
!413 = !DILocation(line: 102, column: 12, scope: !378)
!414 = !DILocation(line: 102, column: 10, scope: !378)
!415 = !DILocation(line: 105, column: 12, scope: !378)
!416 = !DILocation(line: 105, column: 17, scope: !378)
!417 = !DILocation(line: 105, column: 15, scope: !378)
!418 = !DILocation(line: 105, column: 10, scope: !378)
!419 = !DILocation(line: 106, column: 12, scope: !378)
!420 = !DILocation(line: 106, column: 17, scope: !378)
!421 = !DILocation(line: 106, column: 15, scope: !378)
!422 = !DILocation(line: 106, column: 24, scope: !378)
!423 = !DILocation(line: 106, column: 10, scope: !378)
!424 = !DILocation(line: 107, column: 12, scope: !378)
!425 = !DILocation(line: 107, column: 17, scope: !378)
!426 = !DILocation(line: 107, column: 15, scope: !378)
!427 = !DILocation(line: 107, column: 10, scope: !378)
!428 = !DILocation(line: 108, column: 12, scope: !378)
!429 = !DILocation(line: 108, column: 17, scope: !378)
!430 = !DILocation(line: 108, column: 15, scope: !378)
!431 = !DILocation(line: 108, column: 24, scope: !378)
!432 = !DILocation(line: 108, column: 10, scope: !378)
!433 = !DILocation(line: 109, column: 12, scope: !378)
!434 = !DILocation(line: 109, column: 17, scope: !378)
!435 = !DILocation(line: 109, column: 15, scope: !378)
!436 = !DILocation(line: 109, column: 10, scope: !378)
!437 = !DILocation(line: 110, column: 12, scope: !378)
!438 = !DILocation(line: 110, column: 17, scope: !378)
!439 = !DILocation(line: 110, column: 15, scope: !378)
!440 = !DILocation(line: 110, column: 24, scope: !378)
!441 = !DILocation(line: 110, column: 10, scope: !378)
!442 = !DILocation(line: 113, column: 11, scope: !443)
!443 = distinct !DILexicalBlock(scope: !378, file: !1, line: 113, column: 11)
!444 = !DILocation(line: 113, column: 14, scope: !443)
!445 = !DILocation(line: 113, column: 11, scope: !378)
!446 = !DILocation(line: 114, column: 12, scope: !447)
!447 = distinct !DILexicalBlock(scope: !443, file: !1, line: 113, column: 19)
!448 = !DILocation(line: 115, column: 7, scope: !447)
!449 = !DILocation(line: 116, column: 11, scope: !450)
!450 = distinct !DILexicalBlock(scope: !378, file: !1, line: 116, column: 11)
!451 = !DILocation(line: 116, column: 17, scope: !450)
!452 = !DILocation(line: 116, column: 14, scope: !450)
!453 = !DILocation(line: 116, column: 11, scope: !378)
!454 = !DILocation(line: 117, column: 14, scope: !455)
!455 = distinct !DILexicalBlock(scope: !450, file: !1, line: 116, column: 21)
!456 = !DILocation(line: 117, column: 17, scope: !455)
!457 = !DILocation(line: 117, column: 12, scope: !455)
!458 = !DILocation(line: 118, column: 7, scope: !455)
!459 = !DILocation(line: 119, column: 11, scope: !460)
!460 = distinct !DILexicalBlock(scope: !378, file: !1, line: 119, column: 11)
!461 = !DILocation(line: 119, column: 14, scope: !460)
!462 = !DILocation(line: 119, column: 11, scope: !378)
!463 = !DILocation(line: 120, column: 12, scope: !464)
!464 = distinct !DILexicalBlock(scope: !460, file: !1, line: 119, column: 19)
!465 = !DILocation(line: 121, column: 7, scope: !464)
!466 = !DILocation(line: 122, column: 11, scope: !467)
!467 = distinct !DILexicalBlock(scope: !378, file: !1, line: 122, column: 11)
!468 = !DILocation(line: 122, column: 17, scope: !467)
!469 = !DILocation(line: 122, column: 14, scope: !467)
!470 = !DILocation(line: 122, column: 11, scope: !378)
!471 = !DILocation(line: 123, column: 14, scope: !472)
!472 = distinct !DILexicalBlock(scope: !467, file: !1, line: 122, column: 21)
!473 = !DILocation(line: 123, column: 17, scope: !472)
!474 = !DILocation(line: 123, column: 12, scope: !472)
!475 = !DILocation(line: 124, column: 7, scope: !472)
!476 = !DILocation(line: 125, column: 11, scope: !477)
!477 = distinct !DILexicalBlock(scope: !378, file: !1, line: 125, column: 11)
!478 = !DILocation(line: 125, column: 14, scope: !477)
!479 = !DILocation(line: 125, column: 11, scope: !378)
!480 = !DILocation(line: 126, column: 12, scope: !481)
!481 = distinct !DILexicalBlock(scope: !477, file: !1, line: 125, column: 19)
!482 = !DILocation(line: 127, column: 7, scope: !481)
!483 = !DILocation(line: 128, column: 11, scope: !484)
!484 = distinct !DILexicalBlock(scope: !378, file: !1, line: 128, column: 11)
!485 = !DILocation(line: 128, column: 17, scope: !484)
!486 = !DILocation(line: 128, column: 14, scope: !484)
!487 = !DILocation(line: 128, column: 11, scope: !378)
!488 = !DILocation(line: 129, column: 14, scope: !489)
!489 = distinct !DILexicalBlock(scope: !484, file: !1, line: 128, column: 21)
!490 = !DILocation(line: 129, column: 17, scope: !489)
!491 = !DILocation(line: 129, column: 12, scope: !489)
!492 = !DILocation(line: 130, column: 7, scope: !489)
!493 = !DILocation(line: 133, column: 16, scope: !378)
!494 = !DILocation(line: 133, column: 21, scope: !378)
!495 = !DILocation(line: 133, column: 19, scope: !378)
!496 = !DILocation(line: 133, column: 35, scope: !378)
!497 = !DILocation(line: 133, column: 33, scope: !378)
!498 = !DILocation(line: 133, column: 14, scope: !378)
!499 = !DILocation(line: 134, column: 16, scope: !378)
!500 = !DILocation(line: 134, column: 21, scope: !378)
!501 = !DILocation(line: 134, column: 19, scope: !378)
!502 = !DILocation(line: 134, column: 35, scope: !378)
!503 = !DILocation(line: 134, column: 33, scope: !378)
!504 = !DILocation(line: 134, column: 14, scope: !378)
!505 = !DILocation(line: 135, column: 12, scope: !378)
!506 = !DILocation(line: 135, column: 17, scope: !378)
!507 = !DILocation(line: 135, column: 15, scope: !378)
!508 = !DILocation(line: 135, column: 31, scope: !378)
!509 = !DILocation(line: 135, column: 29, scope: !378)
!510 = !DILocation(line: 135, column: 10, scope: !378)
!511 = !DILocation(line: 136, column: 16, scope: !512)
!512 = distinct !DILexicalBlock(scope: !378, file: !1, line: 136, column: 7)
!513 = !DILocation(line: 136, column: 14, scope: !512)
!514 = !DILocation(line: 136, column: 12, scope: !512)
!515 = !DILocation(line: 136, column: 20, scope: !516)
!516 = !DILexicalBlockFile(scope: !517, file: !1, discriminator: 1)
!517 = distinct !DILexicalBlock(scope: !512, file: !1, line: 136, column: 7)
!518 = !DILocation(line: 136, column: 25, scope: !516)
!519 = !DILocation(line: 136, column: 22, scope: !516)
!520 = !DILocation(line: 136, column: 7, scope: !516)
!521 = !DILocation(line: 137, column: 16, scope: !522)
!522 = distinct !DILexicalBlock(scope: !517, file: !1, line: 136, column: 53)
!523 = !DILocation(line: 137, column: 20, scope: !522)
!524 = !DILocation(line: 137, column: 18, scope: !522)
!525 = !DILocation(line: 137, column: 14, scope: !522)
!526 = !DILocation(line: 138, column: 15, scope: !522)
!527 = !DILocation(line: 138, column: 20, scope: !522)
!528 = !DILocation(line: 138, column: 18, scope: !522)
!529 = !DILocation(line: 138, column: 13, scope: !522)
!530 = !DILocation(line: 140, column: 14, scope: !522)
!531 = !DILocation(line: 140, column: 12, scope: !522)
!532 = !DILocation(line: 141, column: 18, scope: !533)
!533 = distinct !DILexicalBlock(scope: !522, file: !1, line: 141, column: 9)
!534 = !DILocation(line: 141, column: 16, scope: !533)
!535 = !DILocation(line: 141, column: 14, scope: !533)
!536 = !DILocation(line: 141, column: 22, scope: !537)
!537 = !DILexicalBlockFile(scope: !538, file: !1, discriminator: 1)
!538 = distinct !DILexicalBlock(scope: !533, file: !1, line: 141, column: 9)
!539 = !DILocation(line: 141, column: 27, scope: !537)
!540 = !DILocation(line: 141, column: 24, scope: !537)
!541 = !DILocation(line: 141, column: 9, scope: !537)
!542 = !DILocation(line: 142, column: 20, scope: !543)
!543 = distinct !DILexicalBlock(scope: !538, file: !1, line: 141, column: 55)
!544 = !DILocation(line: 142, column: 27, scope: !543)
!545 = !DILocation(line: 142, column: 25, scope: !543)
!546 = !DILocation(line: 142, column: 32, scope: !543)
!547 = !DILocation(line: 142, column: 30, scope: !543)
!548 = !DILocation(line: 142, column: 17, scope: !543)
!549 = !DILocation(line: 143, column: 19, scope: !543)
!550 = !DILocation(line: 143, column: 24, scope: !543)
!551 = !DILocation(line: 143, column: 22, scope: !543)
!552 = !DILocation(line: 143, column: 29, scope: !543)
!553 = !DILocation(line: 143, column: 27, scope: !543)
!554 = !DILocation(line: 143, column: 17, scope: !543)
!555 = !DILocation(line: 145, column: 16, scope: !543)
!556 = !DILocation(line: 145, column: 14, scope: !543)
!557 = !DILocation(line: 146, column: 19, scope: !543)
!558 = !DILocation(line: 146, column: 27, scope: !543)
!559 = !DILocation(line: 146, column: 25, scope: !543)
!560 = !DILocation(line: 146, column: 17, scope: !543)
!561 = !DILocation(line: 147, column: 16, scope: !543)
!562 = !DILocation(line: 147, column: 25, scope: !543)
!563 = !DILocation(line: 147, column: 35, scope: !543)
!564 = !DILocation(line: 147, column: 33, scope: !543)
!565 = !DILocation(line: 147, column: 14, scope: !543)
!566 = !DILocation(line: 149, column: 20, scope: !567)
!567 = distinct !DILexicalBlock(scope: !543, file: !1, line: 149, column: 11)
!568 = !DILocation(line: 149, column: 18, scope: !567)
!569 = !DILocation(line: 149, column: 16, scope: !567)
!570 = !DILocation(line: 149, column: 24, scope: !571)
!571 = !DILexicalBlockFile(scope: !572, file: !1, discriminator: 1)
!572 = distinct !DILexicalBlock(scope: !567, file: !1, line: 149, column: 11)
!573 = !DILocation(line: 149, column: 29, scope: !571)
!574 = !DILocation(line: 149, column: 26, scope: !571)
!575 = !DILocation(line: 149, column: 11, scope: !571)
!576 = !DILocation(line: 150, column: 18, scope: !577)
!577 = distinct !DILexicalBlock(scope: !572, file: !1, line: 149, column: 63)
!578 = !DILocation(line: 150, column: 23, scope: !577)
!579 = !DILocation(line: 150, column: 21, scope: !577)
!580 = !DILocation(line: 150, column: 28, scope: !577)
!581 = !DILocation(line: 150, column: 26, scope: !577)
!582 = !DILocation(line: 150, column: 16, scope: !577)
!583 = !DILocation(line: 155, column: 17, scope: !584)
!584 = distinct !DILexicalBlock(scope: !577, file: !1, line: 155, column: 17)
!585 = !DILocation(line: 155, column: 22, scope: !584)
!586 = !DILocation(line: 155, column: 20, scope: !584)
!587 = !DILocation(line: 155, column: 17, scope: !577)
!588 = !DILocation(line: 156, column: 16, scope: !589)
!589 = distinct !DILexicalBlock(scope: !584, file: !1, line: 155, column: 26)
!590 = !DILocation(line: 156, column: 19, scope: !589)
!591 = !DILocation(line: 157, column: 13, scope: !589)
!592 = !DILocation(line: 158, column: 11, scope: !577)
!593 = !DILocation(line: 149, column: 34, scope: !594)
!594 = !DILexicalBlockFile(scope: !572, file: !1, discriminator: 2)
!595 = !DILocation(line: 149, column: 40, scope: !594)
!596 = !DILocation(line: 149, column: 50, scope: !594)
!597 = !DILocation(line: 149, column: 47, scope: !594)
!598 = !DILocation(line: 149, column: 11, scope: !594)
!599 = distinct !{!599, !600}
!600 = !DILocation(line: 149, column: 11, scope: !543)
!601 = !DILocation(line: 159, column: 9, scope: !543)
!602 = !DILocation(line: 141, column: 32, scope: !603)
!603 = !DILexicalBlockFile(scope: !538, file: !1, discriminator: 2)
!604 = !DILocation(line: 141, column: 42, scope: !603)
!605 = !DILocation(line: 141, column: 39, scope: !603)
!606 = !DILocation(line: 141, column: 9, scope: !603)
!607 = distinct !{!607, !608}
!608 = !DILocation(line: 141, column: 9, scope: !522)
!609 = !DILocation(line: 160, column: 7, scope: !522)
!610 = !DILocation(line: 136, column: 30, scope: !611)
!611 = !DILexicalBlockFile(scope: !517, file: !1, discriminator: 2)
!612 = !DILocation(line: 136, column: 40, scope: !611)
!613 = !DILocation(line: 136, column: 37, scope: !611)
!614 = !DILocation(line: 136, column: 7, scope: !611)
!615 = distinct !{!615, !616}
!616 = !DILocation(line: 136, column: 7, scope: !378)
!617 = !DILocation(line: 162, column: 5, scope: !378)
!618 = !DILocation(line: 93, column: 47, scope: !619)
!619 = !DILexicalBlockFile(scope: !374, file: !1, discriminator: 2)
!620 = !DILocation(line: 93, column: 42, scope: !619)
!621 = !DILocation(line: 93, column: 40, scope: !619)
!622 = !DILocation(line: 93, column: 5, scope: !619)
!623 = distinct !{!623, !624}
!624 = !DILocation(line: 93, column: 5, scope: !368)
!625 = !DILocation(line: 163, column: 3, scope: !368)
!626 = !DILocation(line: 92, column: 42, scope: !627)
!627 = !DILexicalBlockFile(scope: !362, file: !1, discriminator: 2)
!628 = !DILocation(line: 92, column: 3, scope: !627)
!629 = distinct !{!629, !630}
!630 = !DILocation(line: 92, column: 3, scope: !9)
!631 = !DILocation(line: 166, column: 8, scope: !9)
!632 = !DILocation(line: 166, column: 3, scope: !9)
!633 = !DILocation(line: 167, column: 8, scope: !9)
!634 = !DILocation(line: 167, column: 3, scope: !9)
!635 = !DILocation(line: 169, column: 3, scope: !9)
